v1/dumpfile.vcd
$version Generated by VerilatedVcd $end
$timescale 1ps $end
 $scope module cpu_tb $end
  $var wire 32 5! ADDRESS_WIDTH [31:0] $end
  $var wire 32 5! DATA_WIDTH [31:0] $end
  $var wire 1 /! rst $end
  $var wire 1 0! clk $end
  $var wire 32 G result [31:0] $end
  $var wire 32 H pcw [31:0] $end
  $scope module dut $end
   $var wire 32 5! DATA_WIDTH [31:0] $end
   $var wire 32 5! ADDRESS_WIDTH [31:0] $end
   $var wire 32 6! IMEM_SIZE [31:0] $end
   $var wire 32 7! DMEM_SIZE [31:0] $end
   $var wire 1 0! clk $end
   $var wire 1 /! rst $end
   $var wire 32 G result [31:0] $end
   $var wire 32 H pcw [31:0] $end
   $var wire 32 I pc_f_o [31:0] $end
   $var wire 32 J pc_plus4_f_o [31:0] $end
   $var wire 32 # instr_f_o [31:0] $end
   $var wire 32 K pc_d_i [31:0] $end
   $var wire 32 L pc_plus4_d_i [31:0] $end
   $var wire 32 M instr_d_i [31:0] $end
   $var wire 32 $ rd1_d_o [31:0] $end
   $var wire 32 % rd2_d_o [31:0] $end
   $var wire 32 N imm_val_d_o [31:0] $end
   $var wire 32 K pc_d_o [31:0] $end
   $var wire 32 L pc_plus4_d_o [31:0] $end
   $var wire 5 O rd_d_o [4:0] $end
   $var wire 4 P alu_control_d_o [3:0] $end
   $var wire 2 Q res_src_d_o [1:0] $end
   $var wire 1 R mem_write_d_o $end
   $var wire 1 S reg_write_d_o $end
   $var wire 1 T jump_d_o $end
   $var wire 1 U branch_d_o $end
   $var wire 1 V alu_src_a_d_o $end
   $var wire 1 W alu_src_b_d_o $end
   $var wire 3 X funct3_d_o [2:0] $end
   $var wire 5 Y rs1_d_o [4:0] $end
   $var wire 5 Z rs2_d_o [4:0] $end
   $var wire 32 [ rd1_e_i [31:0] $end
   $var wire 32 \ rd2_e_i [31:0] $end
   $var wire 32 ] imm_val_e_i [31:0] $end
   $var wire 32 ^ pc_e_i [31:0] $end
   $var wire 32 _ pc_plus4_e_i [31:0] $end
   $var wire 5 ` rd_e_i [4:0] $end
   $var wire 4 a alu_control_e_i [3:0] $end
   $var wire 2 b res_src_e_i [1:0] $end
   $var wire 1 c mem_write_e_i $end
   $var wire 1 d reg_write_e_i $end
   $var wire 1 e jump_e_i $end
   $var wire 1 f branch_e_i $end
   $var wire 1 g alu_src_a_e_i $end
   $var wire 1 h alu_src_b_e_i $end
   $var wire 3 i funct3_e_i [2:0] $end
   $var wire 5 j rs1_e_i [4:0] $end
   $var wire 5 k rs2_e_i [4:0] $end
   $var wire 32 l alu_result_e_o [31:0] $end
   $var wire 32 \ write_data_e_o [31:0] $end
   $var wire 32 l pc_target_e_o [31:0] $end
   $var wire 32 _ pc_plus4_e_o [31:0] $end
   $var wire 1 m pc_src_e_o $end
   $var wire 1 c mem_write_e_o $end
   $var wire 1 d reg_write_e_o $end
   $var wire 2 b res_src_e_o [1:0] $end
   $var wire 3 i funct3_e_o [2:0] $end
   $var wire 5 ` rd_e_o [4:0] $end
   $var wire 32 n alu_result_m_i [31:0] $end
   $var wire 32 o write_data_m_i [31:0] $end
   $var wire 32 p pc_plus4_m_i [31:0] $end
   $var wire 1 q mem_write_m_i $end
   $var wire 1 r reg_write_m_i $end
   $var wire 2 s res_src_m_i [1:0] $end
   $var wire 3 t funct3_m_i [2:0] $end
   $var wire 5 u rd_m_i [4:0] $end
   $var wire 1 r reg_write_m_o $end
   $var wire 2 s result_src_m_o [1:0] $end
   $var wire 32 n alu_result_m_o [31:0] $end
   $var wire 32 v read_data_m_o [31:0] $end
   $var wire 5 u rd_m_o [4:0] $end
   $var wire 32 p pc_plus4_m_o [31:0] $end
   $var wire 1 w reg_write_w_i $end
   $var wire 2 x result_src_w_i [1:0] $end
   $var wire 32 G alu_result_w_i [31:0] $end
   $var wire 32 y read_data_w_i [31:0] $end
   $var wire 5 z rd_w_i [4:0] $end
   $var wire 32 { pc_plus4_w_i [31:0] $end
   $var wire 32 | alu_result_w_o [31:0] $end
   $var wire 1 w reg_write_w_o $end
   $var wire 5 z rd_w_o [4:0] $end
   $var wire 1 } stall_f $end
   $var wire 1 } stall_d $end
   $var wire 1 m flush_d $end
   $var wire 1 ~ flush_e $end
   $var wire 2 !! forward_a_e [1:0] $end
   $var wire 2 "! forward_b_e [1:0] $end
   $scope module de $end
    $var wire 32 5! ADDRESS_WIDTH [31:0] $end
    $var wire 32 5! DATA_WIDTH [31:0] $end
    $var wire 1 0! clk $end
    $var wire 1 8! en $end
    $var wire 1 1! clr $end
    $var wire 1 S reg_write_d $end
    $var wire 2 Q res_src_d [1:0] $end
    $var wire 1 R mem_write_d $end
    $var wire 1 T jump_d $end
    $var wire 1 U branch_d $end
    $var wire 4 P alu_control_d [3:0] $end
    $var wire 3 X funct3_d [14:12] $end
    $var wire 1 W alu_src_b_d $end
    $var wire 1 V alu_src_a_d $end
    $var wire 32 $ rd1_d [31:0] $end
    $var wire 32 % rd2_d [31:0] $end
    $var wire 32 K pc_d [31:0] $end
    $var wire 5 O rd_d [4:0] $end
    $var wire 32 N imm_val_d [31:0] $end
    $var wire 32 L pc_plus4_d [31:0] $end
    $var wire 5 Y rs1_d [4:0] $end
    $var wire 5 Z rs2_d [4:0] $end
    $var wire 1 d reg_write_e $end
    $var wire 2 b res_src_e [1:0] $end
    $var wire 1 c mem_write_e $end
    $var wire 1 e jump_e $end
    $var wire 1 f branch_e $end
    $var wire 4 a alu_control_e [3:0] $end
    $var wire 3 i funct3_e [14:12] $end
    $var wire 1 h alu_src_b_e $end
    $var wire 1 g alu_src_a_e $end
    $var wire 32 [ rd1_e [31:0] $end
    $var wire 32 \ rd2_e [31:0] $end
    $var wire 32 ^ pc_e [31:0] $end
    $var wire 5 ` rd_e [4:0] $end
    $var wire 32 ] imm_val_e [31:0] $end
    $var wire 32 _ pc_plus4_e [31:0] $end
    $var wire 5 j rs1_e [4:0] $end
    $var wire 5 k rs2_e [4:0] $end
   $upscope $end
   $scope module decode_stage $end
    $var wire 32 5! ADDRESS_WIDTH [31:0] $end
    $var wire 32 5! DATA_WIDTH [31:0] $end
    $var wire 1 0! clk $end
    $var wire 1 w reg_write_w $end
    $var wire 32 | result_w [31:0] $end
    $var wire 5 z rd_w [4:0] $end
    $var wire 32 K pc_f [31:0] $end
    $var wire 32 L pc_plus4_f [31:0] $end
    $var wire 32 M instr_f [31:0] $end
    $var wire 1 S reg_write_d $end
    $var wire 2 Q res_src_d [1:0] $end
    $var wire 1 R mem_write_d $end
    $var wire 1 T jump_d $end
    $var wire 1 U branch_d $end
    $var wire 4 P alu_control_d [3:0] $end
    $var wire 3 X funct3_d [2:0] $end
    $var wire 1 W alu_src_b_d $end
    $var wire 1 V alu_src_a_d $end
    $var wire 5 Y rs1_d [4:0] $end
    $var wire 5 Z rs2_d [4:0] $end
    $var wire 32 $ rd1_d [31:0] $end
    $var wire 32 % rd2_d [31:0] $end
    $var wire 32 K pc_d [31:0] $end
    $var wire 5 O rd_d [4:0] $end
    $var wire 32 N imm_val_d [31:0] $end
    $var wire 32 L pc_plus4_d [31:0] $end
    $var wire 3 #! imm_src_d [2:0] $end
    $scope module cu $end
     $var wire 7 $! op [6:0] $end
     $var wire 3 X funct3 [14:12] $end
     $var wire 1 %! funct7b5 $end
     $var wire 1 S reg_write_d $end
     $var wire 2 Q res_src_d [1:0] $end
     $var wire 1 R mem_write_d $end
     $var wire 1 T jump_d $end
     $var wire 1 U branch_d $end
     $var wire 4 P alu_control_d [3:0] $end
     $var wire 1 W alu_src_b_d $end
     $var wire 1 V alu_src_a_d $end
     $var wire 3 #! imm_src_d [2:0] $end
     $var wire 11 &! controls [10:0] $end
     $var wire 4 P alu_controls [3:0] $end
    $upscope $end
    $scope module imex $end
     $var wire 25 '! instr [31:7] $end
     $var wire 3 #! imm_type [2:0] $end
     $var wire 32 N imm_val [31:0] $end
    $upscope $end
    $scope module rf $end
     $var wire 32 5! DATA_WIDTH [31:0] $end
     $var wire 1 0! clk $end
     $var wire 1 w write_enable $end
     $var wire 5 Y a1 [4:0] $end
     $var wire 5 Z a2 [4:0] $end
     $var wire 5 z a3 [4:0] $end
     $var wire 32 | wd3 [31:0] $end
     $var wire 32 $ rd1 [31:0] $end
     $var wire 32 % rd2 [31:0] $end
     $var wire 32 & reg_array[0] [31:0] $end
     $var wire 32 ' reg_array[1] [31:0] $end
     $var wire 32 ( reg_array[2] [31:0] $end
     $var wire 32 ) reg_array[3] [31:0] $end
     $var wire 32 * reg_array[4] [31:0] $end
     $var wire 32 + reg_array[5] [31:0] $end
     $var wire 32 , reg_array[6] [31:0] $end
     $var wire 32 - reg_array[7] [31:0] $end
     $var wire 32 . reg_array[8] [31:0] $end
     $var wire 32 / reg_array[9] [31:0] $end
     $var wire 32 0 reg_array[10] [31:0] $end
     $var wire 32 1 reg_array[11] [31:0] $end
     $var wire 32 2 reg_array[12] [31:0] $end
     $var wire 32 3 reg_array[13] [31:0] $end
     $var wire 32 4 reg_array[14] [31:0] $end
     $var wire 32 5 reg_array[15] [31:0] $end
     $var wire 32 6 reg_array[16] [31:0] $end
     $var wire 32 7 reg_array[17] [31:0] $end
     $var wire 32 8 reg_array[18] [31:0] $end
     $var wire 32 9 reg_array[19] [31:0] $end
     $var wire 32 : reg_array[20] [31:0] $end
     $var wire 32 ; reg_array[21] [31:0] $end
     $var wire 32 < reg_array[22] [31:0] $end
     $var wire 32 = reg_array[23] [31:0] $end
     $var wire 32 > reg_array[24] [31:0] $end
     $var wire 32 ? reg_array[25] [31:0] $end
     $var wire 32 @ reg_array[26] [31:0] $end
     $var wire 32 A reg_array[27] [31:0] $end
     $var wire 32 B reg_array[28] [31:0] $end
     $var wire 32 C reg_array[29] [31:0] $end
     $var wire 32 D reg_array[30] [31:0] $end
     $var wire 32 E reg_array[31] [31:0] $end
     $var wire 32 2! i [31:0] $end
    $upscope $end
   $upscope $end
   $scope module em $end
    $var wire 32 5! ADDRESS_WIDTH [31:0] $end
    $var wire 32 5! DATA_WIDTH [31:0] $end
    $var wire 1 0! clk $end
    $var wire 1 8! en $end
    $var wire 1 /! clr $end
    $var wire 1 d reg_write_e $end
    $var wire 1 c mem_write_e $end
    $var wire 2 b result_src_e [1:0] $end
    $var wire 3 i funct3_e [14:12] $end
    $var wire 32 l alu_result_e [31:0] $end
    $var wire 32 \ write_data_e [31:0] $end
    $var wire 5 ` rd_e [4:0] $end
    $var wire 32 _ pc_plus4_e [31:0] $end
    $var wire 1 r reg_write_m $end
    $var wire 1 q mem_write_m $end
    $var wire 2 s result_src_m [1:0] $end
    $var wire 3 t funct3_m [14:12] $end
    $var wire 32 n alu_result_m [31:0] $end
    $var wire 32 o write_data_m [31:0] $end
    $var wire 5 u rd_m [4:0] $end
    $var wire 32 p pc_plus4_m [31:0] $end
   $upscope $end
   $scope module execute_stage $end
    $var wire 32 5! DATA_WIDTH [31:0] $end
    $var wire 32 5! ADDRESS_WIDTH [31:0] $end
    $var wire 1 d reg_write_d $end
    $var wire 2 b res_src_d [1:0] $end
    $var wire 1 c mem_write_d $end
    $var wire 1 e jump_d $end
    $var wire 1 f branch_d $end
    $var wire 4 a alu_control_d [3:0] $end
    $var wire 3 i funct3_d [14:12] $end
    $var wire 1 h alu_src_b_d $end
    $var wire 1 g alu_src_a_d $end
    $var wire 32 [ rd1_d [31:0] $end
    $var wire 32 \ rd2_d [31:0] $end
    $var wire 32 ^ pc_d [31:0] $end
    $var wire 5 ` rd_d [4:0] $end
    $var wire 32 ] imm_val_d [31:0] $end
    $var wire 32 _ pc_plus4_d [31:0] $end
    $var wire 32 n alu_result_m [31:0] $end
    $var wire 32 | alu_result_w [31:0] $end
    $var wire 2 !! forward_a_e [1:0] $end
    $var wire 2 "! forward_b_e [1:0] $end
    $var wire 1 d reg_write_e $end
    $var wire 2 b res_src_e [1:0] $end
    $var wire 1 c mem_write_e $end
    $var wire 3 i funct3_e [14:12] $end
    $var wire 32 l alu_result_e [31:0] $end
    $var wire 32 \ write_data_e [31:0] $end
    $var wire 5 ` rd_e [4:0] $end
    $var wire 32 _ pc_plus4_e [31:0] $end
    $var wire 32 l pc_target_e [31:0] $end
    $var wire 1 m pc_src_e $end
    $var wire 32 (! a_alu [31:0] $end
    $var wire 32 )! b_alu [31:0] $end
    $var wire 32 *! rd1 [31:0] $end
    $var wire 32 +! rd2 [31:0] $end
    $var wire 1 ,! branch_result $end
    $scope module bu $end
     $var wire 32 5! DATA_WIDTH [31:0] $end
     $var wire 32 [ a [31:0] $end
     $var wire 32 \ b [31:0] $end
     $var wire 3 i funct3 [2:0] $end
     $var wire 1 ,! branch_result $end
    $upscope $end
    $scope module main_alu $end
     $var wire 32 5! DATA_WIDTH [31:0] $end
     $var wire 32 (! a [31:0] $end
     $var wire 32 )! b [31:0] $end
     $var wire 4 a alu_controls [3:0] $end
     $var wire 32 l res [31:0] $end
    $upscope $end
   $upscope $end
   $scope module fd $end
    $var wire 32 5! ADDRESS_WIDTH [31:0] $end
    $var wire 32 5! DATA_WIDTH [31:0] $end
    $var wire 1 0! clk $end
    $var wire 1 } en $end
    $var wire 1 3! clr $end
    $var wire 32 I pc_f [31:0] $end
    $var wire 32 J pc_plus4_f [31:0] $end
    $var wire 32 # instr_f [31:0] $end
    $var wire 32 K pc_d [31:0] $end
    $var wire 32 L pc_plus4_d [31:0] $end
    $var wire 32 M instr_d [31:0] $end
   $upscope $end
   $scope module fetch_stage $end
    $var wire 32 5! DATA_WIDTH [31:0] $end
    $var wire 32 5! ADDRESS_WIDTH [31:0] $end
    $var wire 32 6! IMEM_SIZE [31:0] $end
    $var wire 1 0! clk $end
    $var wire 1 /! rst $end
    $var wire 1 } en $end
    $var wire 1 m pc_src_e $end
    $var wire 32 l pc_target_e [31:0] $end
    $var wire 32 I pc_f [31:0] $end
    $var wire 32 J pc_plus4_f [31:0] $end
    $var wire 32 # instr_f [31:0] $end
    $var wire 32 I pc [31:0] $end
    $scope module i_mem $end
     $var wire 32 5! ADDRESS_WIDTH [31:0] $end
     $var wire 32 5! DATA_WIDTH [31:0] $end
     $var wire 32 6! MEM_SIZE [31:0] $end
     $var wire 32 I instr_addr [31:0] $end
     $var wire 32 # instr [31:0] $end
    $upscope $end
   $upscope $end
   $scope module hazard_unit $end
    $var wire 5 Y rs1_d [4:0] $end
    $var wire 5 Z rs2_d [4:0] $end
    $var wire 5 j rs1_e [4:0] $end
    $var wire 5 k rs2_e [4:0] $end
    $var wire 5 ` rd_e [4:0] $end
    $var wire 1 m pc_src_e $end
    $var wire 1 -! res_src_e_b0 $end
    $var wire 5 u rd_m [4:0] $end
    $var wire 1 r reg_write_m $end
    $var wire 5 u rd_w [4:0] $end
    $var wire 1 r reg_write_w $end
    $var wire 1 } stall_f $end
    $var wire 1 } stall_d $end
    $var wire 1 m flush_d $end
    $var wire 1 ~ flush_e $end
    $var wire 2 !! forward_a_e [1:0] $end
    $var wire 2 "! forward_b_e [1:0] $end
    $var wire 1 } lw_stall $end
   $upscope $end
   $scope module memory_stage $end
    $var wire 32 5! ADDRESS_WIDTH [31:0] $end
    $var wire 32 5! DATA_WIDTH [31:0] $end
    $var wire 32 7! DMEM_SIZE [31:0] $end
    $var wire 1 0! clk $end
    $var wire 1 r reg_write_e $end
    $var wire 2 s result_src_e [1:0] $end
    $var wire 1 q mem_write_e $end
    $var wire 3 t funct3_e [14:12] $end
    $var wire 32 n alu_result_e [31:0] $end
    $var wire 32 o write_data_e [31:0] $end
    $var wire 5 u rd_e [4:0] $end
    $var wire 32 p pc_plus4_e [31:0] $end
    $var wire 1 r reg_write_m $end
    $var wire 2 s result_src_m [1:0] $end
    $var wire 32 n alu_result_m [31:0] $end
    $var wire 32 v read_data_m [31:0] $end
    $var wire 5 u rd_m [4:0] $end
    $var wire 32 p pc_plus4_m [31:0] $end
    $scope module dm $end
     $var wire 32 5! ADDRESS_WIDTH [31:0] $end
     $var wire 32 5! DATA_WIDTH [31:0] $end
     $var wire 32 7! MEM_SIZE [31:0] $end
     $var wire 1 0! clk $end
     $var wire 1 q mem_write_e $end
     $var wire 3 t funct3 [14:12] $end
     $var wire 32 n data_mem_addr [31:0] $end
     $var wire 32 o write_data_e [31:0] $end
     $var wire 32 v read_data_m [31:0] $end
     $var wire 32 .! word_addr [31:0] $end
     $var wire 32 F word [31:0] $end
     $var wire 32 4! i [31:0] $end
    $upscope $end
   $upscope $end
   $scope module mw $end
    $var wire 32 5! ADDRESS_WIDTH [31:0] $end
    $var wire 32 5! DATA_WIDTH [31:0] $end
    $var wire 1 0! clk $end
    $var wire 1 8! en $end
    $var wire 1 /! clr $end
    $var wire 1 r reg_write_m $end
    $var wire 2 s result_src_m [1:0] $end
    $var wire 32 n alu_result_m [31:0] $end
    $var wire 32 v read_data_m [31:0] $end
    $var wire 5 u rd_m [4:0] $end
    $var wire 32 p pc_plus4_m [31:0] $end
    $var wire 1 w reg_write_w $end
    $var wire 2 x result_src_w [1:0] $end
    $var wire 32 G alu_result_w [31:0] $end
    $var wire 32 y read_data_w [31:0] $end
    $var wire 5 z rd_w [4:0] $end
    $var wire 32 { pc_plus4_w [31:0] $end
   $upscope $end
   $scope module writeback_stage $end
    $var wire 32 5! ADDRESS_WIDTH [31:0] $end
    $var wire 32 5! DATA_WIDTH [31:0] $end
    $var wire 1 w reg_write_m $end
    $var wire 2 x result_src_m [1:0] $end
    $var wire 32 G alu_result_m [31:0] $end
    $var wire 32 y read_data_m [31:0] $end
    $var wire 5 z rd_m [4:0] $end
    $var wire 32 { pc_plus4_m [31:0] $end
    $var wire 32 | result_w [31:0] $end
    $var wire 1 w reg_write_w $end
    $var wire 5 z rd_w [4:0] $end
    $scope module result_mux $end
     $var wire 32 5! DATA_WIDTH [31:0] $end
     $var wire 32 G in1 [31:0] $end
     $var wire 32 y in2 [31:0] $end
     $var wire 32 { in3 [31:0] $end
     $var wire 2 x sel [1:0] $end
     $var wire 32 | out [31:0] $end
    $upscope $end
   $upscope $end
  $upscope $end
 $upscope $end
$enddefinitions $end


#0
b00000000000100000000000010010011 #
b00000000000000000000000000000000 $
b00000000000000000000000000000000 %
b00000000000000000000000000000000 &
b00000000000000000000000000000000 '
b00000000000000000000000000000000 (
b00000000000000000000000000000000 )
b00000000000000000000000000000000 *
b00000000000000000000000000000000 +
b00000000000000000000000000000000 ,
b00000000000000000000000000000000 -
b00000000000000000000000000000000 .
b00000000000000000000000000000000 /
b00000000000000000000000000000000 0
b00000000000000000000000000000000 1
b00000000000000000000000000000000 2
b00000000000000000000000000000000 3
b00000000000000000000000000000000 4
b00000000000000000000000000000000 5
b00000000000000000000000000000000 6
b00000000000000000000000000000000 7
b00000000000000000000000000000000 8
b00000000000000000000000000000000 9
b00000000000000000000000000000000 :
b00000000000000000000000000000000 ;
b00000000000000000000000000000000 <
b00000000000000000000000000000000 =
b00000000000000000000000000000000 >
b00000000000000000000000000000000 ?
b00000000000000000000000000000000 @
b00000000000000000000000000000000 A
b00000000000000000000000000000000 B
b00000000000000000000000000000000 C
b00000000000000000000000000000000 D
b00000000000000000000000000000000 E
b00000000000000000000000000000000 F
b00000000000000000000000000000000 G
b11111111111111111111111111111100 H
b00000000000000000000000000000000 I
b00000000000000000000000000000100 J
b00000000000000000000000000000000 K
b00000000000000000000000000000000 L
b00000000000000000000000000000000 M
b00000000000000000000000000000000 N
b00000 O
b0000 P
b00 Q
0R
0S
0T
0U
0V
0W
b000 X
b00000 Y
b00000 Z
b00000000000000000000000000000000 [
b00000000000000000000000000000000 \
b00000000000000000000000000000000 ]
b00000000000000000000000000000000 ^
b00000000000000000000000000000000 _
b00000 `
b0000 a
b00 b
0c
0d
0e
0f
0g
0h
b000 i
b00000 j
b00000 k
b00000000000000000000000000000000 l
0m
b00000000000000000000000000000000 n
b00000000000000000000000000000000 o
b00000000000000000000000000000000 p
0q
0r
b00 s
b000 t
b00000 u
b00000000000000000000000000000000 v
0w
b00 x
b00000000000000000000000000000000 y
b00000 z
b00000000000000000000000000000000 {
b00000000000000000000000000000000 |
0}
0~
b00 !!
b00 "!
b000 #!
b0000000 $!
0%!
b00000000000 &!
b0000000000000000000000000 '!
b00000000000000000000000000000000 (!
b00000000000000000000000000000000 )!
b00000000000000000000000000000000 *!
b00000000000000000000000000000000 +!
1,!
0-!
b00000000000000000000000000000000 .!
1/!
00!
11!
b00000000000000000000000000100000 2!
13!
b00000000000000000000000001000000 4!
b00000000000000000000000000100000 5!
b00000000000000000000010000000000 6!
b00000000000000000000000001000000 7!
08!
#14
b00000001000000000000000100010011 #
b00000000000000000000000000000100 I
b00000000000000000000000000001000 J
b00000000000000000000000000000100 L
b00000000000100000000000010010011 M
b00000000000000000000000000000001 N
b00001 O
1S
1W
b00001 Z
b0010011 $!
b10000001000 &!
b0000000000010000000000001 '!
0/!
10!
01!
03!
#28
00!
#42
b11111111110100000000000110010011 #
b00000000000000000000000000001000 I
b00000000000000000000000000001100 J
b00000000000000000000000000000100 K
b00000000000000000000000000001000 L
b00000001000000000000000100010011 M
b00000000000000000000000000010000 N
b00010 O
b10000 Z
b00000000000000000000000000000001 ]
b00000000000000000000000000000100 _
b00001 `
1d
1h
b00001 k
b00000000000000000000000000000001 l
b0000000100000000000000010 '!
b00000000000000000000000000000001 )!
10!
#56
00!
#70
b00000000000000000000001000010011 #
b00000000000000000000000000001100 I
b00000000000000000000000000010000 J
b00000000000000000000000000001000 K
b00000000000000000000000000001100 L
b11111111110100000000000110010011 M
b11111111111111111111111111111101 N
b00011 O
b11101 Z
b00000000000000000000000000010000 ]
b00000000000000000000000000000100 ^
b00000000000000000000000000001000 _
b00010 `
b10000 k
b00000000000000000000000000010000 l
b00000000000000000000000000000001 n
b00000000000000000000000000000100 p
1r
b00001 u
1%!
b1111111111010000000000011 '!
b00000000000000000000000000010000 )!
10!
#84
00!
#98
b00000000110000011000001010010011 #
b00000000000000000000000000000001 G
b00000000000000000000000000000000 H
b00000000000000000000000000010000 I
b00000000000000000000000000010100 J
b00000000000000000000000000001100 K
b00000000000000000000000000010000 L
b00000000000000000000001000010011 M
b00000000000000000000000000000000 N
b00100 O
b00000 Z
b11111111111111111111111111111101 ]
b00000000000000000000000000001000 ^
b00000000000000000000000000001100 _
b00011 `
b11101 k
b11111111111111111111111111111101 l
b00000000000000000000000000010000 n
b00000000000000000000000000001000 p
b00010 u
1w
b00001 z
b00000000000000000000000000000100 {
b00000000000000000000000000000001 |
0%!
b0000000000000000000000100 '!
b11111111111111111111111111111101 )!
b00000000000000000000000000000100 .!
10!
#112
00!
#126
b00000000001000010001001100010011 #
b00000000000000000000000000000001 '
b00000000000000000000000000010000 G
b00000000000000000000000000000100 H
b00000000000000000000000000010100 I
b00000000000000000000000000011000 J
b00000000000000000000000000010000 K
b00000000000000000000000000010100 L
b00000000110000011000001010010011 M
b00000000000000000000000000001100 N
b00101 O
b00011 Y
b01100 Z
b00000000000000000000000000000000 ]
b00000000000000000000000000001100 ^
b00000000000000000000000000010000 _
b00100 `
b00000 k
b00000000000000000000000000000000 l
b11111111111111111111111111111101 n
b00000000000000000000000000001100 p
b00011 u
b00010 z
b00000000000000000000000000001000 {
b00000000000000000000000000010000 |
b0000000011000001100000101 '!
b00000000000000000000000000000000 )!
b00000000000000000000000000111111 .!
10!
#140
00!
#154
b11111111000000010010001110010011 #
b00000000000000000000000000010000 $
b00000000000000000000000000010000 %
b00000000000000000000000000010000 (
b11111111111111111111111111111101 G
b00000000000000000000000000001000 H
b00000000000000000000000000011000 I
b00000000000000000000000000011100 J
b00000000000000000000000000010100 K
b00000000000000000000000000011000 L
b00000000001000010001001100010011 M
b00000000000000000000000000000010 N
b00110 O
b0010 P
b001 X
b00010 Y
b00010 Z
b00000000000000000000000000001100 ]
b00000000000000000000000000010000 ^
b00000000000000000000000000010100 _
b00101 `
b00011 j
b01100 k
b00000000000000000000000000001100 l
b00000000000000000000000000000000 n
b00000000000000000000000000010000 p
b00100 u
b00011 z
b00000000000000000000000000001100 {
b11111111111111111111111111111101 |
b0000000000100001000100110 '!
b00000000000000000000000000001100 )!
b00000000000000000000000000000000 .!
10!
#168
00!
#182
b11111111000000010011010000010011 #
b00000000000000000000000000000000 %
b11111111111111111111111111111101 )
b00000000000000000000000000000000 G
b00000000000000000000000000001100 H
b00000000000000000000000000011100 I
b00000000000000000000000000100000 J
b00000000000000000000000000011000 K
b00000000000000000000000000011100 L
b11111111000000010010001110010011 M
b11111111111111111111111111110000 N
b00111 O
b0011 P
b010 X
b10000 Z
b00000000000000000000000000010000 [
b00000000000000000000000000010000 \
b00000000000000000000000000000010 ]
b00000000000000000000000000010100 ^
b00000000000000000000000000011000 _
b00110 `
b0010 a
b001 i
b00010 j
b00010 k
b00000000000000000000000001000000 l
b00000000000000000000000000001100 n
b00000000000000000000000000010100 p
b00101 u
b00100 z
b00000000000000000000000000010000 {
b00000000000000000000000000000000 |
1%!
b1111111100000001001000111 '!
b00000000000000000000000000010000 (!
b00000000000000000000000000000010 )!
b00000000000000000000000000010000 *!
b00000000000000000000000000010000 +!
0,!
b00000000000000000000000000000011 .!
10!
#196
00!
#210
b00000001001000010100010010010011 #
b00000000000000000000000000001100 G
b00000000000000000000000000010000 H
b00000000000000000000000000100000 I
b00000000000000000000000000100100 J
b00000000000000000000000000011100 K
b00000000000000000000000000100000 L
b11111111000000010011010000010011 M
b01000 O
b0100 P
b011 X
b00000000000000000000000000000000 \
b11111111111111111111111111110000 ]
b00000000000000000000000000011000 ^
b00000000000000000000000000011100 _
b00111 `
b0011 a
b010 i
b10000 k
b00000000000000000000000000000000 l
b00000000000000000000000001000000 n
b00000000000000000000000000010000 o
b00000000000000000000000000011000 p
b001 t
b00110 u
b00101 z
b00000000000000000000000000010100 {
b00000000000000000000000000001100 |
b1111111100000001001101000 '!
b11111111111111111111111111110000 )!
b00000000000000000000000000000000 +!
b00000000000000000000000000010000 .!
10!
#224
00!
#238
b00000000001100011101010100010011 #
b00000000000000000000000000001100 +
b00000000000000000000000001000000 G
b00000000000000000000000000010100 H
b00000000000000000000000000100100 I
b00000000000000000000000000101000 J
b00000000000000000000000000100000 K
b00000000000000000000000000100100 L
b00000001001000010100010010010011 M
b00000000000000000000000000010010 N
b01001 O
b0101 P
b100 X
b10010 Z
b00000000000000000000000000011100 ^
b00000000000000000000000000100000 _
b01000 `
b0100 a
b011 i
b00000000000000000000000000000001 l
b00000000000000000000000000000000 n
b00000000000000000000000000000000 o
b00000000000000000000000000011100 p
b010 t
b00111 u
b00110 z
b00000000000000000000000000011000 {
b00000000000000000000000001000000 |
0%!
b0000000100100001010001001 '!
b00000000000000000000000000000000 .!
10!
#252
00!
#266
b01000000001100011101010110010011 #
b11111111111111111111111111111101 $
b11111111111111111111111111111101 %
b00000000000000000000000001000000 ,
b00000000000000000000000000000000 G
b00000000000000000000000000011000 H
b00000000000000000000000000101000 I
b00000000000000000000000000101100 J
b00000000000000000000000000100100 K
b00000000000000000000000000101000 L
b00000000001100011101010100010011 M
b00000000000000000000000000000011 N
b01010 O
b0110 P
b101 X
b00011 Y
b00011 Z
b00000000000000000000000000010010 ]
b00000000000000000000000000100000 ^
b00000000000000000000000000100100 _
b01001 `
b0101 a
b100 i
b10010 k
b00000000000000000000000000000010 l
b00000000000000000000000000000001 n
b00000000000000000000000000100000 p
b011 t
b01000 u
b00111 z
b00000000000000000000000000011100 {
b00000000000000000000000000000000 |
b0000000000110001110101010 '!
b00000000000000000000000000010010 )!
10!
#280
00!
#294
b00000000001100011110011000010011 #
b00000000000000000000000000000001 G
b00000000000000000000000000011100 H
b00000000000000000000000000101100 I
b00000000000000000000000000110000 J
b00000000000000000000000000101000 K
b00000000000000000000000000101100 L
b01000000001100011101010110010011 M
b00000000000000000000010000000011 N
b01011 O
b0111 P
b11111111111111111111111111111101 [
b11111111111111111111111111111101 \
b00000000000000000000000000000011 ]
b00000000000000000000000000100100 ^
b00000000000000000000000000101000 _
b01010 `
b0110 a
b101 i
b00011 j
b00011 k
b00011111111111111111111111111111 l
b00000000000000000000000000000010 n
b00000000000000000000000000100100 p
b100 t
b01001 u
b01000 z
b00000000000000000000000000100000 {
b00000000000000000000000000000001 |
1%!
b0100000000110001110101011 '!
b11111111111111111111111111111101 (!
b00000000000000000000000000000011 )!
b11111111111111111111111111111101 *!
b11111111111111111111111111111101 +!
1,!
10!
#308
00!
#322
b00000000001100011111011010010011 #
b00000000000000000000000000000001 .
b00000000000000000000000000000010 G
b00000000000000000000000000100000 H
b00000000000000000000000000110000 I
b00000000000000000000000000110100 J
b00000000000000000000000000101100 K
b00000000000000000000000000110000 L
b00000000001100011110011000010011 M
b00000000000000000000000000000011 N
b01100 O
b1000 P
b110 X
b00000000000000000000010000000011 ]
b00000000000000000000000000101000 ^
b00000000000000000000000000101100 _
b01011 `
b0111 a
b11111111111111111111111111111111 l
b00011111111111111111111111111111 n
b11111111111111111111111111111101 o
b00000000000000000000000000101000 p
b101 t
b01010 u
b01001 z
b00000000000000000000000000100100 {
b00000000000000000000000000000010 |
0%!
b0000000000110001111001100 '!
b00000000000000000000010000000011 )!
b00000000000000000000000000111111 .!
10!
#336
00!
