v1/dumpfile.vcd
$version Generated by VerilatedVcd $end
$timescale 1ps $end
 $scope module $rootio $end
 $upscope $end
 $scope module cpu_tb $end
  $var wire 32 5! ADDRESS_WIDTH [31:0] $end
  $var wire 32 5! DATA_WIDTH [31:0] $end
  $var wire 1 /! rst $end
  $var wire 1 0! clk $end
  $var wire 32 F result [31:0] $end
  $var wire 32 G pcw [31:0] $end
  $scope module dut $end
   $var wire 32 5! DATA_WIDTH [31:0] $end
   $var wire 32 5! ADDRESS_WIDTH [31:0] $end
   $var wire 32 6! IMEM_SIZE [31:0] $end
   $var wire 32 7! DMEM_SIZE [31:0] $end
   $var wire 1 0! clk $end
   $var wire 1 /! rst $end
   $var wire 32 F result [31:0] $end
   $var wire 32 G pcw [31:0] $end
   $var wire 32 H pc_f_o [31:0] $end
   $var wire 32 I pc_plus4_f_o [31:0] $end
   $var wire 32 # instr_f_o [31:0] $end
   $var wire 32 J pc_d_i [31:0] $end
   $var wire 32 K pc_plus4_d_i [31:0] $end
   $var wire 32 L instr_d_i [31:0] $end
   $var wire 32 $ rd1_d_o [31:0] $end
   $var wire 32 % rd2_d_o [31:0] $end
   $var wire 32 M imm_val_d_o [31:0] $end
   $var wire 32 J pc_d_o [31:0] $end
   $var wire 32 K pc_plus4_d_o [31:0] $end
   $var wire 5 N rd_d_o [4:0] $end
   $var wire 4 O alu_control_d_o [3:0] $end
   $var wire 2 P res_src_d_o [1:0] $end
   $var wire 1 Q mem_write_d_o $end
   $var wire 1 R reg_write_d_o $end
   $var wire 1 S jump_d_o $end
   $var wire 1 T branch_d_o $end
   $var wire 1 U alu_src_a_d_o $end
   $var wire 1 V alu_src_b_d_o $end
   $var wire 3 W funct3_d_o [2:0] $end
   $var wire 5 X rs1_d_o [4:0] $end
   $var wire 5 Y rs2_d_o [4:0] $end
   $var wire 32 Z rd1_e_i [31:0] $end
   $var wire 32 [ rd2_e_i [31:0] $end
   $var wire 32 \ imm_val_e_i [31:0] $end
   $var wire 32 ] pc_e_i [31:0] $end
   $var wire 32 ^ pc_plus4_e_i [31:0] $end
   $var wire 5 _ rd_e_i [4:0] $end
   $var wire 4 ` alu_control_e_i [3:0] $end
   $var wire 2 a res_src_e_i [1:0] $end
   $var wire 1 b mem_write_e_i $end
   $var wire 1 c reg_write_e_i $end
   $var wire 1 d jump_e_i $end
   $var wire 1 e branch_e_i $end
   $var wire 1 f alu_src_a_e_i $end
   $var wire 1 g alu_src_b_e_i $end
   $var wire 3 h funct3_e_i [2:0] $end
   $var wire 5 i rs1_e_i [4:0] $end
   $var wire 5 j rs2_e_i [4:0] $end
   $var wire 32 k alu_result_e_o [31:0] $end
   $var wire 32 [ write_data_e_o [31:0] $end
   $var wire 32 k pc_target_e_o [31:0] $end
   $var wire 32 ^ pc_plus4_e_o [31:0] $end
   $var wire 1 l pc_src_e_o $end
   $var wire 1 b mem_write_e_o $end
   $var wire 1 c reg_write_e_o $end
   $var wire 2 a res_src_e_o [1:0] $end
   $var wire 3 h funct3_e_o [2:0] $end
   $var wire 5 _ rd_e_o [4:0] $end
   $var wire 32 m alu_result_m_i [31:0] $end
   $var wire 32 n write_data_m_i [31:0] $end
   $var wire 32 o pc_plus4_m_i [31:0] $end
   $var wire 1 p mem_write_m_i $end
   $var wire 1 q reg_write_m_i $end
   $var wire 2 r res_src_m_i [1:0] $end
   $var wire 3 s funct3_m_i [2:0] $end
   $var wire 5 t rd_m_i [4:0] $end
   $var wire 1 q reg_write_m_o $end
   $var wire 2 r result_src_m_o [1:0] $end
   $var wire 32 m alu_result_m_o [31:0] $end
   $var wire 32 u read_data_m_o [31:0] $end
   $var wire 5 t rd_m_o [4:0] $end
   $var wire 32 o pc_plus4_m_o [31:0] $end
   $var wire 1 v reg_write_w_i $end
   $var wire 2 w result_src_w_i [1:0] $end
   $var wire 32 F alu_result_w_i [31:0] $end
   $var wire 32 x read_data_w_i [31:0] $end
   $var wire 5 y rd_w_i [4:0] $end
   $var wire 32 z pc_plus4_w_i [31:0] $end
   $var wire 32 { alu_result_w_o [31:0] $end
   $var wire 1 v reg_write_w_o $end
   $var wire 5 y rd_w_o [4:0] $end
   $var wire 1 | stall_f $end
   $var wire 1 | stall_d $end
   $var wire 1 l flush_d $end
   $var wire 1 } flush_e $end
   $var wire 2 ~ forward_a_e [1:0] $end
   $var wire 2 !! forward_b_e [1:0] $end
   $scope module de $end
    $var wire 32 5! ADDRESS_WIDTH [31:0] $end
    $var wire 32 5! DATA_WIDTH [31:0] $end
    $var wire 1 0! clk $end
    $var wire 1 8! en $end
    $var wire 1 1! clr $end
    $var wire 1 R reg_write_d $end
    $var wire 2 P res_src_d [1:0] $end
    $var wire 1 Q mem_write_d $end
    $var wire 1 S jump_d $end
    $var wire 1 T branch_d $end
    $var wire 4 O alu_control_d [3:0] $end
    $var wire 3 W funct3_d [14:12] $end
    $var wire 1 V alu_src_b_d $end
    $var wire 1 U alu_src_a_d $end
    $var wire 32 $ rd1_d [31:0] $end
    $var wire 32 % rd2_d [31:0] $end
    $var wire 32 J pc_d [31:0] $end
    $var wire 5 N rd_d [4:0] $end
    $var wire 32 M imm_val_d [31:0] $end
    $var wire 32 K pc_plus4_d [31:0] $end
    $var wire 5 X rs1_d [4:0] $end
    $var wire 5 Y rs2_d [4:0] $end
    $var wire 1 c reg_write_e $end
    $var wire 2 a res_src_e [1:0] $end
    $var wire 1 b mem_write_e $end
    $var wire 1 d jump_e $end
    $var wire 1 e branch_e $end
    $var wire 4 ` alu_control_e [3:0] $end
    $var wire 3 h funct3_e [14:12] $end
    $var wire 1 g alu_src_b_e $end
    $var wire 1 f alu_src_a_e $end
    $var wire 32 Z rd1_e [31:0] $end
    $var wire 32 [ rd2_e [31:0] $end
    $var wire 32 ] pc_e [31:0] $end
    $var wire 5 _ rd_e [4:0] $end
    $var wire 32 \ imm_val_e [31:0] $end
    $var wire 32 ^ pc_plus4_e [31:0] $end
    $var wire 5 i rs1_e [4:0] $end
    $var wire 5 j rs2_e [4:0] $end
   $upscope $end
   $scope module decode_stage $end
    $var wire 32 5! ADDRESS_WIDTH [31:0] $end
    $var wire 32 5! DATA_WIDTH [31:0] $end
    $var wire 1 0! clk $end
    $var wire 1 v reg_write_w $end
    $var wire 32 { result_w [31:0] $end
    $var wire 5 y rd_w [4:0] $end
    $var wire 32 J pc_f [31:0] $end
    $var wire 32 K pc_plus4_f [31:0] $end
    $var wire 32 L instr_f [31:0] $end
    $var wire 1 R reg_write_d $end
    $var wire 2 P res_src_d [1:0] $end
    $var wire 1 Q mem_write_d $end
    $var wire 1 S jump_d $end
    $var wire 1 T branch_d $end
    $var wire 4 O alu_control_d [3:0] $end
    $var wire 3 W funct3_d [2:0] $end
    $var wire 1 V alu_src_b_d $end
    $var wire 1 U alu_src_a_d $end
    $var wire 5 X rs1_d [4:0] $end
    $var wire 5 Y rs2_d [4:0] $end
    $var wire 32 $ rd1_d [31:0] $end
    $var wire 32 % rd2_d [31:0] $end
    $var wire 32 J pc_d [31:0] $end
    $var wire 5 N rd_d [4:0] $end
    $var wire 32 M imm_val_d [31:0] $end
    $var wire 32 K pc_plus4_d [31:0] $end
    $var wire 3 "! imm_src_d [2:0] $end
    $scope module cu $end
     $var wire 7 #! op [6:0] $end
     $var wire 3 W funct3 [14:12] $end
     $var wire 1 $! funct7b5 $end
     $var wire 1 R reg_write_d $end
     $var wire 2 P res_src_d [1:0] $end
     $var wire 1 Q mem_write_d $end
     $var wire 1 S jump_d $end
     $var wire 1 T branch_d $end
     $var wire 4 O alu_control_d [3:0] $end
     $var wire 1 V alu_src_b_d $end
     $var wire 1 U alu_src_a_d $end
     $var wire 3 "! imm_src_d [2:0] $end
     $var wire 11 %! controls [10:0] $end
     $var wire 4 O alu_controls [3:0] $end
    $upscope $end
    $scope module imex $end
     $var wire 25 &! instr [31:7] $end
     $var wire 3 "! imm_type [2:0] $end
     $var wire 32 M imm_val [31:0] $end
    $upscope $end
    $scope module rf $end
     $var wire 32 5! DATA_WIDTH [31:0] $end
     $var wire 1 0! clk $end
     $var wire 1 v write_enable $end
     $var wire 5 X a1 [4:0] $end
     $var wire 5 Y a2 [4:0] $end
     $var wire 5 y a3 [4:0] $end
     $var wire 32 { wd3 [31:0] $end
     $var wire 32 $ rd1 [31:0] $end
     $var wire 32 % rd2 [31:0] $end
     $var wire 32 & reg_array[0] [31:0] $end
     $var wire 32 ' reg_array[1] [31:0] $end
     $var wire 32 ( reg_array[2] [31:0] $end
     $var wire 32 ) reg_array[3] [31:0] $end
     $var wire 32 * reg_array[4] [31:0] $end
     $var wire 32 + reg_array[5] [31:0] $end
     $var wire 32 , reg_array[6] [31:0] $end
     $var wire 32 - reg_array[7] [31:0] $end
     $var wire 32 . reg_array[8] [31:0] $end
     $var wire 32 / reg_array[9] [31:0] $end
     $var wire 32 0 reg_array[10] [31:0] $end
     $var wire 32 1 reg_array[11] [31:0] $end
     $var wire 32 2 reg_array[12] [31:0] $end
     $var wire 32 3 reg_array[13] [31:0] $end
     $var wire 32 4 reg_array[14] [31:0] $end
     $var wire 32 5 reg_array[15] [31:0] $end
     $var wire 32 6 reg_array[16] [31:0] $end
     $var wire 32 7 reg_array[17] [31:0] $end
     $var wire 32 8 reg_array[18] [31:0] $end
     $var wire 32 9 reg_array[19] [31:0] $end
     $var wire 32 : reg_array[20] [31:0] $end
     $var wire 32 ; reg_array[21] [31:0] $end
     $var wire 32 < reg_array[22] [31:0] $end
     $var wire 32 = reg_array[23] [31:0] $end
     $var wire 32 > reg_array[24] [31:0] $end
     $var wire 32 ? reg_array[25] [31:0] $end
     $var wire 32 @ reg_array[26] [31:0] $end
     $var wire 32 A reg_array[27] [31:0] $end
     $var wire 32 B reg_array[28] [31:0] $end
     $var wire 32 C reg_array[29] [31:0] $end
     $var wire 32 D reg_array[30] [31:0] $end
     $var wire 32 E reg_array[31] [31:0] $end
     $var wire 32 2! i [31:0] $end
    $upscope $end
   $upscope $end
   $scope module em $end
    $var wire 32 5! ADDRESS_WIDTH [31:0] $end
    $var wire 32 5! DATA_WIDTH [31:0] $end
    $var wire 1 0! clk $end
    $var wire 1 8! en $end
    $var wire 1 /! clr $end
    $var wire 1 c reg_write_e $end
    $var wire 1 b mem_write_e $end
    $var wire 2 a result_src_e [1:0] $end
    $var wire 3 h funct3_e [14:12] $end
    $var wire 32 k alu_result_e [31:0] $end
    $var wire 32 [ write_data_e [31:0] $end
    $var wire 5 _ rd_e [4:0] $end
    $var wire 32 ^ pc_plus4_e [31:0] $end
    $var wire 1 q reg_write_m $end
    $var wire 1 p mem_write_m $end
    $var wire 2 r result_src_m [1:0] $end
    $var wire 3 s funct3_m [14:12] $end
    $var wire 32 m alu_result_m [31:0] $end
    $var wire 32 n write_data_m [31:0] $end
    $var wire 5 t rd_m [4:0] $end
    $var wire 32 o pc_plus4_m [31:0] $end
   $upscope $end
   $scope module execute_stage $end
    $var wire 32 5! DATA_WIDTH [31:0] $end
    $var wire 32 5! ADDRESS_WIDTH [31:0] $end
    $var wire 1 c reg_write_d $end
    $var wire 2 a res_src_d [1:0] $end
    $var wire 1 b mem_write_d $end
    $var wire 1 d jump_d $end
    $var wire 1 e branch_d $end
    $var wire 4 ` alu_control_d [3:0] $end
    $var wire 3 h funct3_d [14:12] $end
    $var wire 1 g alu_src_b_d $end
    $var wire 1 f alu_src_a_d $end
    $var wire 32 Z rd1_d [31:0] $end
    $var wire 32 [ rd2_d [31:0] $end
    $var wire 32 ] pc_d [31:0] $end
    $var wire 5 _ rd_d [4:0] $end
    $var wire 32 \ imm_val_d [31:0] $end
    $var wire 32 ^ pc_plus4_d [31:0] $end
    $var wire 32 m alu_result_m [31:0] $end
    $var wire 32 { alu_result_w [31:0] $end
    $var wire 2 ~ forward_a_e [1:0] $end
    $var wire 2 !! forward_b_e [1:0] $end
    $var wire 1 c reg_write_e $end
    $var wire 2 a res_src_e [1:0] $end
    $var wire 1 b mem_write_e $end
    $var wire 3 h funct3_e [14:12] $end
    $var wire 32 k alu_result_e [31:0] $end
    $var wire 32 [ write_data_e [31:0] $end
    $var wire 5 _ rd_e [4:0] $end
    $var wire 32 ^ pc_plus4_e [31:0] $end
    $var wire 32 k pc_target_e [31:0] $end
    $var wire 1 l pc_src_e $end
    $var wire 32 '! a_alu [31:0] $end
    $var wire 32 (! b_alu [31:0] $end
    $var wire 32 )! rd1 [31:0] $end
    $var wire 32 *! rd2 [31:0] $end
    $var wire 1 +! branch_result $end
    $scope module bu $end
     $var wire 32 5! DATA_WIDTH [31:0] $end
     $var wire 32 Z a [31:0] $end
     $var wire 32 [ b [31:0] $end
     $var wire 3 h funct3 [2:0] $end
     $var wire 1 +! branch_result $end
    $upscope $end
    $scope module main_alu $end
     $var wire 32 5! DATA_WIDTH [31:0] $end
     $var wire 32 '! a [31:0] $end
     $var wire 32 (! b [31:0] $end
     $var wire 4 ` alu_controls [3:0] $end
     $var wire 32 k res [31:0] $end
    $upscope $end
   $upscope $end
   $scope module fd $end
    $var wire 32 5! ADDRESS_WIDTH [31:0] $end
    $var wire 32 5! DATA_WIDTH [31:0] $end
    $var wire 1 0! clk $end
    $var wire 1 | en $end
    $var wire 1 3! clr $end
    $var wire 32 H pc_f [31:0] $end
    $var wire 32 I pc_plus4_f [31:0] $end
    $var wire 32 # instr_f [31:0] $end
    $var wire 32 J pc_d [31:0] $end
    $var wire 32 K pc_plus4_d [31:0] $end
    $var wire 32 L instr_d [31:0] $end
   $upscope $end
   $scope module fetch_stage $end
    $var wire 32 5! DATA_WIDTH [31:0] $end
    $var wire 32 5! ADDRESS_WIDTH [31:0] $end
    $var wire 32 6! IMEM_SIZE [31:0] $end
    $var wire 1 0! clk $end
    $var wire 1 /! rst $end
    $var wire 1 | en $end
    $var wire 1 l pc_src_e $end
    $var wire 32 k pc_target_e [31:0] $end
    $var wire 32 H pc_f [31:0] $end
    $var wire 32 I pc_plus4_f [31:0] $end
    $var wire 32 # instr_f [31:0] $end
    $var wire 32 H pc [31:0] $end
    $scope module i_mem $end
     $var wire 32 5! ADDRESS_WIDTH [31:0] $end
     $var wire 32 5! DATA_WIDTH [31:0] $end
     $var wire 32 6! MEM_SIZE [31:0] $end
     $var wire 32 H instr_addr [31:0] $end
     $var wire 32 # instr [31:0] $end
    $upscope $end
   $upscope $end
   $scope module hazard_unit $end
    $var wire 5 X rs1_d [4:0] $end
    $var wire 5 Y rs2_d [4:0] $end
    $var wire 5 i rs1_e [4:0] $end
    $var wire 5 j rs2_e [4:0] $end
    $var wire 5 _ rd_e [4:0] $end
    $var wire 1 l pc_src_e $end
    $var wire 1 ,! res_src_e_b0 $end
    $var wire 5 t rd_m [4:0] $end
    $var wire 1 q reg_write_m $end
    $var wire 5 t rd_w [4:0] $end
    $var wire 1 q reg_write_w $end
    $var wire 1 | stall_f $end
    $var wire 1 | stall_d $end
    $var wire 1 l flush_d $end
    $var wire 1 } flush_e $end
    $var wire 2 ~ forward_a_e [1:0] $end
    $var wire 2 !! forward_b_e [1:0] $end
    $var wire 1 | lw_stall $end
   $upscope $end
   $scope module memory_stage $end
    $var wire 32 5! ADDRESS_WIDTH [31:0] $end
    $var wire 32 5! DATA_WIDTH [31:0] $end
    $var wire 32 7! DMEM_SIZE [31:0] $end
    $var wire 1 0! clk $end
    $var wire 1 q reg_write_e $end
    $var wire 2 r result_src_e [1:0] $end
    $var wire 1 p mem_write_e $end
    $var wire 3 s funct3_e [14:12] $end
    $var wire 32 m alu_result_e [31:0] $end
    $var wire 32 n write_data_e [31:0] $end
    $var wire 5 t rd_e [4:0] $end
    $var wire 32 o pc_plus4_e [31:0] $end
    $var wire 1 q reg_write_m $end
    $var wire 2 r result_src_m [1:0] $end
    $var wire 32 m alu_result_m [31:0] $end
    $var wire 32 u read_data_m [31:0] $end
    $var wire 5 t rd_m [4:0] $end
    $var wire 32 o pc_plus4_m [31:0] $end
    $scope module dm $end
     $var wire 32 5! ADDRESS_WIDTH [31:0] $end
     $var wire 32 5! DATA_WIDTH [31:0] $end
     $var wire 32 7! MEM_SIZE [31:0] $end
     $var wire 1 0! clk $end
     $var wire 1 p mem_write_e $end
     $var wire 3 s funct3 [14:12] $end
     $var wire 32 m data_mem_addr [31:0] $end
     $var wire 32 n write_data_e [31:0] $end
     $var wire 32 u read_data_m [31:0] $end
     $var wire 32 -! word_addr [31:0] $end
     $var wire 32 .! word [31:0] $end
     $var wire 32 4! i [31:0] $end
    $upscope $end
   $upscope $end
   $scope module mw $end
    $var wire 32 5! ADDRESS_WIDTH [31:0] $end
    $var wire 32 5! DATA_WIDTH [31:0] $end
    $var wire 1 0! clk $end
    $var wire 1 8! en $end
    $var wire 1 /! clr $end
    $var wire 1 q reg_write_m $end
    $var wire 2 r result_src_m [1:0] $end
    $var wire 32 m alu_result_m [31:0] $end
    $var wire 32 u read_data_m [31:0] $end
    $var wire 5 t rd_m [4:0] $end
    $var wire 32 o pc_plus4_m [31:0] $end
    $var wire 1 v reg_write_w $end
    $var wire 2 w result_src_w [1:0] $end
    $var wire 32 F alu_result_w [31:0] $end
    $var wire 32 x read_data_w [31:0] $end
    $var wire 5 y rd_w [4:0] $end
    $var wire 32 z pc_plus4_w [31:0] $end
   $upscope $end
   $scope module writeback_stage $end
    $var wire 32 5! ADDRESS_WIDTH [31:0] $end
    $var wire 32 5! DATA_WIDTH [31:0] $end
    $var wire 1 v reg_write_m $end
    $var wire 2 w result_src_m [1:0] $end
    $var wire 32 F alu_result_m [31:0] $end
    $var wire 32 x read_data_m [31:0] $end
    $var wire 5 y rd_m [4:0] $end
    $var wire 32 z pc_plus4_m [31:0] $end
    $var wire 32 { result_w [31:0] $end
    $var wire 1 v reg_write_w $end
    $var wire 5 y rd_w [4:0] $end
    $scope module result_mux $end
     $var wire 32 5! DATA_WIDTH [31:0] $end
     $var wire 32 F in1 [31:0] $end
     $var wire 32 x in2 [31:0] $end
     $var wire 32 z in3 [31:0] $end
     $var wire 2 w sel [1:0] $end
     $var wire 32 { out [31:0] $end
    $upscope $end
   $upscope $end
  $upscope $end
 $upscope $end
$enddefinitions $end


#0
b00000000000000000001111011101111 #
b00000000000000000000000000000000 $
b00000000000000000000000000000000 %
b00000000000000000000000000000000 &
b00000000000000000000000000000000 '
b00000000000000000000000000000000 (
b00000000000000000000000000000000 )
b00000000000000000000000000000000 *
b00000000000000000000000000000000 +
b00000000000000000000000000000000 ,
b00000000000000000000000000000000 -
b00000000000000000000000000000000 .
b00000000000000000000000000000000 /
b00000000000000000000000000000000 0
b00000000000000000000000000000000 1
b00000000000000000000000000000000 2
b00000000000000000000000000000000 3
b00000000000000000000000000000000 4
b00000000000000000000000000000000 5
b00000000000000000000000000000000 6
b00000000000000000000000000000000 7
b00000000000000000000000000000000 8
b00000000000000000000000000000000 9
b00000000000000000000000000000000 :
b00000000000000000000000000000000 ;
b00000000000000000000000000000000 <
b00000000000000000000000000000000 =
b00000000000000000000000000000000 >
b00000000000000000000000000000000 ?
b00000000000000000000000000000000 @
b00000000000000000000000000000000 A
b00000000000000000000000000000000 B
b00000000000000000000000000000000 C
b00000000000000000000000000000000 D
b00000000000000000000000000000000 E
b00000000000000000000000000000000 F
b11111111111111111111111111111100 G
b00000000000000000000000000000000 H
b00000000000000000000000000000100 I
b00000000000000000000000000000000 J
b00000000000000000000000000000000 K
b00000000000000000000000000000000 L
b00000000000000000000000000000000 M
b00000 N
b0000 O
b00 P
0Q
0R
0S
0T
0U
0V
b000 W
b00000 X
b00000 Y
b00000000000000000000000000000000 Z
b00000000000000000000000000000000 [
b00000000000000000000000000000000 \
b00000000000000000000000000000000 ]
b00000000000000000000000000000000 ^
b00000 _
b0000 `
b00 a
0b
0c
0d
0e
0f
0g
b000 h
b00000 i
b00000 j
b00000000000000000000000000000000 k
0l
b00000000000000000000000000000000 m
b00000000000000000000000000000000 n
b00000000000000000000000000000000 o
0p
0q
b00 r
b000 s
b00000 t
b00000000000000000000000000000000 u
0v
b00 w
b00000000000000000000000000000000 x
b00000 y
b00000000000000000000000000000000 z
b00000000000000000000000000000000 {
0|
0}
b00 ~
b00 !!
b000 "!
b0000000 #!
0$!
b00000000000 %!
b0000000000000000000000000 &!
b00000000000000000000000000000000 '!
b00000000000000000000000000000000 (!
b00000000000000000000000000000000 )!
b00000000000000000000000000000000 *!
1+!
0,!
b00000000000000000000000000000000 -!
b00000000000000000000000000000000 .!
1/!
00!
11!
b00000000000000000000000000100000 2!
13!
b00000000000000000000000001000000 4!
b00000000000000000000000000100000 5!
b00000000000000000000010000000000 6!
b00000000000000000000000001000000 7!
08!
#5
0/!
01!
03!
#75
b00000000000000000000001111110001 #
b00000000000000000000000000000100 H
b00000000000000000000000000001000 I
b00000000000000000000000000000100 K
b00000000000000000001111011101111 L
b00000000000000000001000000000000 M
b11101 N
b10 P
1R
1S
1U
1V
b001 W
b011 "!
b1101111 #!
b11001011011 %!
b0000000000000000000111101 &!
10!
#150
00!
#225
b00000010100000010010010000100011 #
b00000000000000000000000000001000 H
b00000000000000000000000000001100 I
b00000000000000000000000000000100 J
b00000000000000000000000000001000 K
b00000000000000000000001111110001 L
b00000000000000000000000000000000 M
b00111 N
b00 P
0R
0S
0U
0V
b000 W
b00000000000000000001000000000000 \
b00000000000000000000000000000100 ^
b11101 _
b10 a
1c
1d
1f
1g
b001 h
b00000000000000000001000000000000 k
1l
1}
b000 "!
b1110001 #!
b00000000000 %!
b0000000000000000000000111 &!
b00000000000000000001000000000000 (!
0+!
10!
11!
13!
#300
00!
#375
b00000000000000000001111011101111 #
b00000000000000000001000000000000 H
b00000000000000000001000000000100 I
b00000000000000000000000000000000 J
b00000000000000000000000000000000 K
b00000000000000000000000000000000 L
b00000 N
b00000000000000000000000000000000 \
b00000000000000000000000000000000 ^
b00000 _
b00 a
0c
0d
0f
0g
b000 h
b00000000000000000000000000000000 k
0l
b00000000000000000001000000000000 m
b00000000000000000000000000000100 o
1q
b10 r
b001 s
b11101 t
0}
b0000000 #!
b0000000000000000000000000 &!
b00000000000000000000000000000000 (!
1+!
10!
01!
03!
#450
00!
#525
b00000000000000000000001111110001 #
b00000000000000000001000000000000 F
b00000000000000000000000000000000 G
b00000000000000000001000000000100 H
b00000000000000000001000000001000 I
b00000000000000000001000000000000 J
b00000000000000000001000000000100 K
b00000000000000000001111011101111 L
b00000000000000000001000000000000 M
b11101 N
b10 P
1R
1S
1U
1V
b001 W
b00000000000000000000000000000000 m
b00000000000000000000000000000000 o
0q
b00 r
b000 s
b00000 t
1v
b10 w
b11101 y
b00000000000000000000000000000100 z
b00000000000000000000000000000100 {
b011 "!
b1101111 #!
b11001011011 %!
b0000000000000000000111101 &!
10!
#600
00!
#675
b00000010100000010010010000100011 #
b00000000000000000000000000000100 C
b00000000000000000000000000000000 F
b11111111111111111111111111111100 G
b00000000000000000001000000001000 H
b00000000000000000001000000001100 I
b00000000000000000001000000000100 J
b00000000000000000001000000001000 K
b00000000000000000000001111110001 L
b00000000000000000000000000000000 M
b00111 N
b00 P
0R
0S
0U
0V
b000 W
b00000000000000000001000000000000 \
b00000000000000000001000000000000 ]
b00000000000000000001000000000100 ^
b11101 _
b10 a
1c
1d
1f
1g
b001 h
b00000000000000000010000000000000 k
1l
0v
b00 w
b00000 y
b00000000000000000000000000000000 z
b00000000000000000000000000000000 {
1}
b000 "!
b1110001 #!
b00000000000 %!
b0000000000000000000000111 &!
b00000000000000000001000000000000 '!
b00000000000000000001000000000000 (!
0+!
10!
11!
13!
#750
00!
#825
b00000000000000000001111011101111 #
b00000000000000000010000000000000 H
b00000000000000000010000000000100 I
b00000000000000000000000000000000 J
b00000000000000000000000000000000 K
b00000000000000000000000000000000 L
b00000 N
b00000000000000000000000000000000 \
b00000000000000000000000000000000 ]
b00000000000000000000000000000000 ^
b00000 _
b00 a
0c
0d
0f
0g
b000 h
b00000000000000000000000000000000 k
0l
b00000000000000000010000000000000 m
b00000000000000000001000000000100 o
1q
b10 r
b001 s
b11101 t
0}
b0000000 #!
b0000000000000000000000000 &!
b00000000000000000000000000000000 '!
b00000000000000000000000000000000 (!
1+!
10!
01!
03!
#900
00!
#975
b00000000000000000000001111110001 #
b00000000000000000010000000000000 F
b00000000000000000001000000000000 G
b00000000000000000010000000000100 H
b00000000000000000010000000001000 I
b00000000000000000010000000000000 J
b00000000000000000010000000000100 K
b00000000000000000001111011101111 L
b00000000000000000001000000000000 M
b11101 N
b10 P
1R
1S
1U
1V
b001 W
b00000000000000000000000000000000 m
b00000000000000000000000000000000 o
0q
b00 r
b000 s
b00000 t
1v
b10 w
b11101 y
b00000000000000000001000000000100 z
b00000000000000000001000000000100 {
b011 "!
b1101111 #!
b11001011011 %!
b0000000000000000000111101 &!
10!
#1050
00!
#1125
b00000010100000010010010000100011 #
b00000000000000000001000000000100 C
b00000000000000000000000000000000 F
b11111111111111111111111111111100 G
b00000000000000000010000000001000 H
b00000000000000000010000000001100 I
b00000000000000000010000000000100 J
b00000000000000000010000000001000 K
b00000000000000000000001111110001 L
b00000000000000000000000000000000 M
b00111 N
b00 P
0R
0S
0U
0V
b000 W
b00000000000000000001000000000000 \
b00000000000000000010000000000000 ]
b00000000000000000010000000000100 ^
b11101 _
b10 a
1c
1d
1f
1g
b001 h
b00000000000000000011000000000000 k
1l
0v
b00 w
b00000 y
b00000000000000000000000000000000 z
b00000000000000000000000000000000 {
1}
b000 "!
b1110001 #!
b00000000000 %!
b0000000000000000000000111 &!
b00000000000000000010000000000000 '!
b00000000000000000001000000000000 (!
0+!
10!
11!
13!
#1200
00!
#1275
b00000000000000000001111011101111 #
b00000000000000000011000000000000 H
b00000000000000000011000000000100 I
b00000000000000000000000000000000 J
b00000000000000000000000000000000 K
b00000000000000000000000000000000 L
b00000 N
b00000000000000000000000000000000 \
b00000000000000000000000000000000 ]
b00000000000000000000000000000000 ^
b00000 _
b00 a
0c
0d
0f
0g
b000 h
b00000000000000000000000000000000 k
0l
b00000000000000000011000000000000 m
b00000000000000000010000000000100 o
1q
b10 r
b001 s
b11101 t
0}
b0000000 #!
b0000000000000000000000000 &!
b00000000000000000000000000000000 '!
b00000000000000000000000000000000 (!
1+!
10!
01!
03!
#1350
00!
#1425
b00000000000000000000001111110001 #
b00000000000000000011000000000000 F
b00000000000000000010000000000000 G
b00000000000000000011000000000100 H
b00000000000000000011000000001000 I
b00000000000000000011000000000000 J
b00000000000000000011000000000100 K
b00000000000000000001111011101111 L
b00000000000000000001000000000000 M
b11101 N
b10 P
1R
1S
1U
1V
b001 W
b00000000000000000000000000000000 m
b00000000000000000000000000000000 o
0q
b00 r
b000 s
b00000 t
1v
b10 w
b11101 y
b00000000000000000010000000000100 z
b00000000000000000010000000000100 {
b011 "!
b1101111 #!
b11001011011 %!
b0000000000000000000111101 &!
10!
#1500
00!
#1575
b00000010100000010010010000100011 #
b00000000000000000010000000000100 C
b00000000000000000000000000000000 F
b11111111111111111111111111111100 G
b00000000000000000011000000001000 H
b00000000000000000011000000001100 I
b00000000000000000011000000000100 J
b00000000000000000011000000001000 K
b00000000000000000000001111110001 L
b00000000000000000000000000000000 M
b00111 N
b00 P
0R
0S
0U
0V
b000 W
b00000000000000000001000000000000 \
b00000000000000000011000000000000 ]
b00000000000000000011000000000100 ^
b11101 _
b10 a
1c
1d
1f
1g
b001 h
b00000000000000000100000000000000 k
1l
0v
b00 w
b00000 y
b00000000000000000000000000000000 z
b00000000000000000000000000000000 {
1}
b000 "!
b1110001 #!
b00000000000 %!
b0000000000000000000000111 &!
b00000000000000000011000000000000 '!
b00000000000000000001000000000000 (!
0+!
10!
11!
13!
#1650
00!
#1725
b00000000000000000001111011101111 #
b00000000000000000100000000000000 H
b00000000000000000100000000000100 I
b00000000000000000000000000000000 J
b00000000000000000000000000000000 K
b00000000000000000000000000000000 L
b00000 N
b00000000000000000000000000000000 \
b00000000000000000000000000000000 ]
b00000000000000000000000000000000 ^
b00000 _
b00 a
0c
0d
0f
0g
b000 h
b00000000000000000000000000000000 k
0l
b00000000000000000100000000000000 m
b00000000000000000011000000000100 o
1q
b10 r
b001 s
b11101 t
0}
b0000000 #!
b0000000000000000000000000 &!
b00000000000000000000000000000000 '!
b00000000000000000000000000000000 (!
1+!
10!
01!
03!
#1800
00!
#1875
b00000000000000000000001111110001 #
b00000000000000000100000000000000 F
b00000000000000000011000000000000 G
b00000000000000000100000000000100 H
b00000000000000000100000000001000 I
b00000000000000000100000000000000 J
b00000000000000000100000000000100 K
b00000000000000000001111011101111 L
b00000000000000000001000000000000 M
b11101 N
b10 P
1R
1S
1U
1V
b001 W
b00000000000000000000000000000000 m
b00000000000000000000000000000000 o
0q
b00 r
b000 s
b00000 t
1v
b10 w
b11101 y
b00000000000000000011000000000100 z
b00000000000000000011000000000100 {
b011 "!
b1101111 #!
b11001011011 %!
b0000000000000000000111101 &!
10!
#1950
00!
#2025
b00000010100000010010010000100011 #
b00000000000000000011000000000100 C
b00000000000000000000000000000000 F
b11111111111111111111111111111100 G
b00000000000000000100000000001000 H
b00000000000000000100000000001100 I
b00000000000000000100000000000100 J
b00000000000000000100000000001000 K
b00000000000000000000001111110001 L
b00000000000000000000000000000000 M
b00111 N
b00 P
0R
0S
0U
0V
b000 W
b00000000000000000001000000000000 \
b00000000000000000100000000000000 ]
b00000000000000000100000000000100 ^
b11101 _
b10 a
1c
1d
1f
1g
b001 h
b00000000000000000101000000000000 k
1l
0v
b00 w
b00000 y
b00000000000000000000000000000000 z
b00000000000000000000000000000000 {
1}
b000 "!
b1110001 #!
b00000000000 %!
b0000000000000000000000111 &!
b00000000000000000100000000000000 '!
b00000000000000000001000000000000 (!
0+!
10!
11!
13!
#2100
00!
