v2/dumpfile.vcd
$date
	Sun Apr 13 17:03:17 2025
$end
$version
	Icarus Verilog
$end
$timescale
	1s
$end
$scope module mt_cpu_tb $end
$var wire 32 ! result [31:0] $end
$var wire 32 " pcw [31:0] $end
$var reg 1 # clk $end
$var reg 1 $ rst $end
$scope module dut $end
$var wire 1 # clk $end
$var wire 32 % rd1_d_i [31:0] $end
$var wire 32 & rd2_d_i [31:0] $end
$var wire 32 ' result [31:0] $end
$var wire 1 $ rst $end
$var wire 32 ( write_data_e_o [31:0] $end
$var wire 32 ) write_data_e_i [31:0] $end
$var wire 3 * tid_w_i [2:0] $end
$var wire 3 + tid_m_o [2:0] $end
$var wire 3 , tid_m_i [2:0] $end
$var wire 3 - tid_f_o [2:0] $end
$var wire 3 . tid_f_i [2:0] $end
$var wire 3 / tid_e_o [2:0] $end
$var wire 3 0 tid_e_i [2:0] $end
$var wire 3 1 tid_d_o [2:0] $end
$var wire 3 2 tid_d_i [2:0] $end
$var wire 5 3 rs2_d_o [4:0] $end
$var wire 5 4 rs2_d_i [4:0] $end
$var wire 5 5 rs1_d_o [4:0] $end
$var wire 5 6 rs1_d_i [4:0] $end
$var wire 2 7 result_src_m_o [1:0] $end
$var wire 2 8 result_src_m_i [1:0] $end
$var wire 2 9 res_src_e_o [1:0] $end
$var wire 2 : res_src_e_i [1:0] $end
$var wire 2 ; res_src_d_o [1:0] $end
$var wire 2 < res_src_d_i [1:0] $end
$var wire 1 = reg_write_w_i $end
$var wire 1 > reg_write_m_o $end
$var wire 1 ? reg_write_m_i $end
$var wire 1 @ reg_write_e_o $end
$var wire 1 A reg_write_e_i $end
$var wire 1 B reg_write_d_o $end
$var wire 1 C reg_write_d_i $end
$var wire 32 D read_data_m_o [31:0] $end
$var wire 32 E read_data_m_i [31:0] $end
$var wire 5 F rd_w_i [4:0] $end
$var wire 5 G rd_m_o [4:0] $end
$var wire 5 H rd_m_i [4:0] $end
$var wire 5 I rd_e_o [4:0] $end
$var wire 5 J rd_e_i [4:0] $end
$var wire 5 K rd_d_o [4:0] $end
$var wire 5 L rd_d_i [4:0] $end
$var wire 32 M rd2_d_o [31:0] $end
$var wire 32 N rd1_d_o [31:0] $end
$var wire 32 O pcw [31:0] $end
$var wire 32 P pc_target_e_i [31:0] $end
$var wire 1 Q pc_src_e_i $end
$var wire 32 R pc_plus4_m_o [31:0] $end
$var wire 32 S pc_plus4_m_i [31:0] $end
$var wire 32 T pc_plus4_f_o [31:0] $end
$var wire 32 U pc_plus4_f_i [31:0] $end
$var wire 32 V pc_plus4_e_o [31:0] $end
$var wire 32 W pc_plus4_e_i [31:0] $end
$var wire 32 X pc_plus4_d_o [31:0] $end
$var wire 32 Y pc_plus4_d_i [31:0] $end
$var wire 32 Z pc_f_o [31:0] $end
$var wire 32 [ pc_f_i [31:0] $end
$var wire 32 \ pc_d_o [31:0] $end
$var wire 32 ] pc_d_i [31:0] $end
$var wire 1 ^ mem_write_e_o $end
$var wire 1 _ mem_write_e_i $end
$var wire 1 ` mem_write_d_o $end
$var wire 1 a mem_write_d_i $end
$var wire 1 b jump_d_o $end
$var wire 1 c jump_d_i $end
$var wire 32 d instr_f_o [31:0] $end
$var wire 32 e instr_f_i [31:0] $end
$var wire 32 f imm_val_d_o [31:0] $end
$var wire 32 g imm_val_d_i [31:0] $end
$var wire 3 h funct3_e_o [2:0] $end
$var wire 3 i funct3_e_i [2:0] $end
$var wire 3 j funct3_d_o [2:0] $end
$var wire 3 k funct3_d_i [2:0] $end
$var wire 1 l branch_d_o $end
$var wire 1 m branch_d_i $end
$var wire 1 n alu_src_b_d_o $end
$var wire 1 o alu_src_b_d_i $end
$var wire 1 p alu_src_a_d_o $end
$var wire 1 q alu_src_a_d_i $end
$var wire 32 r alu_result_w_i [31:0] $end
$var wire 32 s alu_result_m_o [31:0] $end
$var wire 32 t alu_result_m_i [31:0] $end
$var wire 32 u alu_result_e_o [31:0] $end
$var wire 32 v alu_result_e_i [31:0] $end
$var wire 4 w alu_control_d_o [3:0] $end
$var wire 4 x alu_control_d_i [3:0] $end
$var wire 1 y adder_src_d_o $end
$var wire 1 z adder_src_d_i $end
$scope module de $end
$var wire 1 # clk $end
$var wire 1 $ clr $end
$var wire 1 { en $end
$var wire 32 | rd1_d_i [31:0] $end
$var wire 32 } rd2_d_i [31:0] $end
$var wire 3 ~ tid_d_i [2:0] $end
$var wire 5 !" rs2_d_i [4:0] $end
$var wire 5 "" rs1_d_i [4:0] $end
$var wire 2 #" res_src_d_i [1:0] $end
$var wire 1 C reg_write_d_i $end
$var wire 5 $" rd_d_i [4:0] $end
$var wire 32 %" pc_plus4_d_i [31:0] $end
$var wire 32 &" pc_d_i [31:0] $end
$var wire 1 a mem_write_d_i $end
$var wire 1 c jump_d_i $end
$var wire 32 '" imm_val_d_i [31:0] $end
$var wire 3 (" funct3_d_i [14:12] $end
$var wire 1 m branch_d_i $end
$var wire 1 o alu_src_b_d_i $end
$var wire 1 q alu_src_a_d_i $end
$var wire 4 )" alu_control_d_i [3:0] $end
$var wire 1 z adder_src_d_i $end
$var reg 1 y adder_src_d_o $end
$var reg 4 *" alu_control_d_o [3:0] $end
$var reg 1 p alu_src_a_d_o $end
$var reg 1 n alu_src_b_d_o $end
$var reg 1 l branch_d_o $end
$var reg 3 +" funct3_d_o [14:12] $end
$var reg 32 ," imm_val_d_o [31:0] $end
$var reg 1 b jump_d_o $end
$var reg 1 ` mem_write_d_o $end
$var reg 32 -" pc_d_o [31:0] $end
$var reg 32 ." pc_plus4_d_o [31:0] $end
$var reg 32 /" rd1_d_o [31:0] $end
$var reg 32 0" rd2_d_o [31:0] $end
$var reg 5 1" rd_d_o [4:0] $end
$var reg 1 B reg_write_d_o $end
$var reg 2 2" res_src_d_o [1:0] $end
$var reg 5 3" rs1_d_o [4:0] $end
$var reg 5 4" rs2_d_o [4:0] $end
$var reg 3 5" tid_d_o [2:0] $end
$upscope $end
$scope module decode_stage $end
$var wire 1 # clk $end
$var wire 32 6" pc_d [31:0] $end
$var wire 32 7" pc_plus4_d [31:0] $end
$var wire 32 8" rd1_d [31:0] $end
$var wire 32 9" rd2_d [31:0] $end
$var wire 3 :" tid_d [2:0] $end
$var wire 3 ;" tid_w [2:0] $end
$var wire 3 <" tid_f [2:0] $end
$var wire 5 =" rs2_d [4:0] $end
$var wire 5 >" rs1_d [4:0] $end
$var wire 32 ?" result_w [31:0] $end
$var wire 2 @" res_src_d [1:0] $end
$var wire 1 = reg_write_w $end
$var wire 1 C reg_write_d $end
$var wire 5 A" rd_w [4:0] $end
$var wire 5 B" rd_d [4:0] $end
$var wire 32 C" pc_plus4_f [31:0] $end
$var wire 32 D" pc_f [31:0] $end
$var wire 1 a mem_write_d $end
$var wire 1 c jump_d $end
$var wire 32 E" instr_f [31:0] $end
$var wire 32 F" imm_val_d [31:0] $end
$var wire 3 G" imm_src_d [2:0] $end
$var wire 3 H" funct3_d [2:0] $end
$var wire 1 m branch_d $end
$var wire 1 o alu_src_b_d $end
$var wire 1 q alu_src_a_d $end
$var wire 4 I" alu_control_d [3:0] $end
$var wire 1 z adder_src_d $end
$scope module cu $end
$var wire 4 J" alu_control_d [3:0] $end
$var wire 3 K" funct3 [14:12] $end
$var wire 1 L" funct7b5 $end
$var wire 7 M" op [6:0] $end
$var wire 2 N" res_src_d [1:0] $end
$var wire 1 C reg_write_d $end
$var wire 1 a mem_write_d $end
$var wire 1 c jump_d $end
$var wire 3 O" imm_src_d [2:0] $end
$var wire 1 m branch_d $end
$var wire 1 o alu_src_b_d $end
$var wire 1 q alu_src_a_d $end
$var wire 1 z adder_src_d $end
$var reg 4 P" alu_controls [3:0] $end
$var reg 12 Q" controls [11:0] $end
$upscope $end
$scope module imex $end
$var wire 3 R" imm_type [2:0] $end
$var wire 25 S" instr [31:7] $end
$var reg 32 T" imm_val [31:0] $end
$upscope $end
$scope module rf $end
$var wire 5 U" a1 [4:0] $end
$var wire 5 V" a2 [4:0] $end
$var wire 1 # clk $end
$var wire 32 W" rd1 [31:0] $end
$var wire 32 X" rd2 [31:0] $end
$var wire 1 = write_enable $end
$var wire 32 Y" wd3 [31:0] $end
$var wire 3 Z" tid_write [2:0] $end
$var wire 3 [" tid_read [2:0] $end
$var wire 5 \" a3 [4:0] $end
$var integer 32 ]" i [31:0] $end
$upscope $end
$upscope $end
$scope module em $end
$var wire 1 # clk $end
$var wire 1 $ clr $end
$var wire 1 ^" en $end
$var wire 32 _" write_data_e_i [31:0] $end
$var wire 3 `" tid_e_i [2:0] $end
$var wire 2 a" result_src_e_i [1:0] $end
$var wire 1 A reg_write_e_i $end
$var wire 5 b" rd_e_i [4:0] $end
$var wire 32 c" pc_plus4_e_i [31:0] $end
$var wire 1 _ mem_write_e_i $end
$var wire 3 d" funct3_e_i [14:12] $end
$var wire 32 e" alu_result_e_i [31:0] $end
$var reg 32 f" alu_result_e_o [31:0] $end
$var reg 3 g" funct3_e_o [14:12] $end
$var reg 1 ^ mem_write_e_o $end
$var reg 32 h" pc_plus4_e_o [31:0] $end
$var reg 5 i" rd_e_o [4:0] $end
$var reg 1 @ reg_write_e_o $end
$var reg 2 j" result_src_e_o [1:0] $end
$var reg 3 k" tid_e_o [2:0] $end
$var reg 32 l" write_data_e_o [31:0] $end
$upscope $end
$scope module execute_stage $end
$var wire 1 y adder_src_d $end
$var wire 4 m" alu_control_d [3:0] $end
$var wire 1 p alu_src_a_d $end
$var wire 1 n alu_src_b_d $end
$var wire 1 l branch_d $end
$var wire 3 n" funct3_d [14:12] $end
$var wire 3 o" funct3_e [14:12] $end
$var wire 32 p" imm_val_d [31:0] $end
$var wire 1 b jump_d $end
$var wire 1 ` mem_write_d $end
$var wire 1 _ mem_write_e $end
$var wire 32 q" pc_d [31:0] $end
$var wire 32 r" pc_plus4_d [31:0] $end
$var wire 32 s" pc_plus4_e [31:0] $end
$var wire 1 Q pc_src_e $end
$var wire 32 t" rd1_d [31:0] $end
$var wire 32 u" rd2_d [31:0] $end
$var wire 5 v" rd_d [4:0] $end
$var wire 5 w" rd_e [4:0] $end
$var wire 1 B reg_write_d $end
$var wire 1 A reg_write_e $end
$var wire 2 x" res_src_d [1:0] $end
$var wire 2 y" res_src_e [1:0] $end
$var wire 5 z" rs1_d [4:0] $end
$var wire 5 {" rs2_d [4:0] $end
$var wire 3 |" tid_d [2:0] $end
$var wire 3 }" tid_e [2:0] $end
$var wire 32 ~" write_data_e [31:0] $end
$var wire 32 !# pc_target_e [31:0] $end
$var wire 32 "# pc_adder_a [31:0] $end
$var wire 32 ## b_alu [31:0] $end
$var wire 32 $# alu_result_e [31:0] $end
$var wire 32 %# a_alu [31:0] $end
$scope module a_src_mux $end
$var wire 32 &# in1 [31:0] $end
$var wire 32 '# in2 [31:0] $end
$var wire 1 p sel $end
$var wire 32 (# out [31:0] $end
$upscope $end
$scope module b_src_mux $end
$var wire 32 )# in1 [31:0] $end
$var wire 32 *# in2 [31:0] $end
$var wire 1 n sel $end
$var wire 32 +# out [31:0] $end
$upscope $end
$scope module main_alu $end
$var wire 32 ,# a [31:0] $end
$var wire 4 -# alu_controls [3:0] $end
$var wire 32 .# b [31:0] $end
$var wire 1 /# funct3b0 $end
$var reg 32 0# res [31:0] $end
$upscope $end
$scope module pc_target_adder $end
$var wire 32 1# b [31:0] $end
$var wire 32 2# res [31:0] $end
$var wire 32 3# a [31:0] $end
$upscope $end
$scope module pc_target_mux $end
$var wire 32 4# in1 [31:0] $end
$var wire 32 5# in2 [31:0] $end
$var wire 1 y sel $end
$var wire 32 6# out [31:0] $end
$upscope $end
$upscope $end
$scope module fd $end
$var wire 1 # clk $end
$var wire 1 $ clr $end
$var wire 1 7# en $end
$var wire 3 8# tid_f_i [2:0] $end
$var wire 32 9# pc_plus4_f_i [31:0] $end
$var wire 32 :# pc_f_i [31:0] $end
$var wire 32 ;# instr_f_i [31:0] $end
$var reg 32 <# instr_f_o [31:0] $end
$var reg 32 =# pc_f_o [31:0] $end
$var reg 32 ># pc_plus4_f_o [31:0] $end
$var reg 3 ?# tid_f_o [2:0] $end
$upscope $end
$scope module fetch_stage $end
$var wire 1 # clk $end
$var wire 1 @# en $end
$var wire 32 A# pc_f [31:0] $end
$var wire 1 Q pc_src_e $end
$var wire 32 B# pc_target_e [31:0] $end
$var wire 1 $ rst $end
$var wire 3 C# tid_e [2:0] $end
$var wire 3 D# tid_f [2:0] $end
$var wire 3 E# tid [2:0] $end
$var wire 32 F# pc_plus4_f [31:0] $end
$var wire 32 G# pc [31:0] $end
$var wire 32 H# instr_f [31:0] $end
$scope module i_mem $end
$var wire 32 I# instr [31:0] $end
$var wire 32 J# instr_addr [31:0] $end
$upscope $end
$scope module t_pc $end
$var wire 3 K# branch_tid_e [2:0] $end
$var wire 1 # clk $end
$var wire 1 Q pc_src_e $end
$var wire 32 L# pc_target_e [31:0] $end
$var wire 1 $ rst $end
$var wire 3 M# tid [2:0] $end
$var reg 32 N# pc [31:0] $end
$var integer 32 O# i [31:0] $end
$upscope $end
$scope module ts $end
$var wire 1 # clk $end
$var wire 1 $ rst $end
$var reg 3 P# tid [2:0] $end
$upscope $end
$upscope $end
$scope module memory_stage $end
$var wire 32 Q# alu_result_e [31:0] $end
$var wire 32 R# alu_result_m [31:0] $end
$var wire 1 # clk $end
$var wire 3 S# funct3_e [14:12] $end
$var wire 1 ^ mem_write_e $end
$var wire 32 T# pc_plus4_e [31:0] $end
$var wire 32 U# pc_plus4_m [31:0] $end
$var wire 5 V# rd_e [4:0] $end
$var wire 5 W# rd_m [4:0] $end
$var wire 1 @ reg_write_e $end
$var wire 1 ? reg_write_m $end
$var wire 2 X# result_src_e [1:0] $end
$var wire 2 Y# result_src_m [1:0] $end
$var wire 3 Z# tid_e [2:0] $end
$var wire 3 [# tid_m [2:0] $end
$var wire 32 \# write_data_e [31:0] $end
$var wire 32 ]# read_data_m [31:0] $end
$scope module dm $end
$var wire 1 # clk $end
$var wire 32 ^# data_mem_addr [31:0] $end
$var wire 3 _# funct3 [14:12] $end
$var wire 1 ^ mem_write_e $end
$var wire 32 `# word [31:0] $end
$var wire 32 a# write_data_e [31:0] $end
$var wire 32 b# word_addr [31:0] $end
$var reg 32 c# read_data_m [31:0] $end
$var integer 32 d# i [31:0] $end
$upscope $end
$upscope $end
$scope module mw $end
$var wire 32 e# alu_result_m_i [31:0] $end
$var wire 1 # clk $end
$var wire 1 $ clr $end
$var wire 1 f# en $end
$var wire 32 g# pc_plus4_m_i [31:0] $end
$var wire 5 h# rd_m_i [4:0] $end
$var wire 32 i# read_data_m_i [31:0] $end
$var wire 1 ? reg_write_m_i $end
$var wire 2 j# result_src_m_i [1:0] $end
$var wire 3 k# tid_m_i [2:0] $end
$var reg 32 l# alu_result_m_o [31:0] $end
$var reg 32 m# pc_plus4_m_o [31:0] $end
$var reg 5 n# rd_m_o [4:0] $end
$var reg 32 o# read_data_m_o [31:0] $end
$var reg 1 > reg_write_m_o $end
$var reg 2 p# result_src_m_o [1:0] $end
$var reg 3 q# tid_m_o [2:0] $end
$upscope $end
$scope module writeback_stage $end
$var wire 32 r# alu_result_m [31:0] $end
$var wire 32 s# pc_plus4_m [31:0] $end
$var wire 5 t# rd_m [4:0] $end
$var wire 5 u# rd_w [4:0] $end
$var wire 32 v# read_data_m [31:0] $end
$var wire 1 > reg_write_m $end
$var wire 1 = reg_write_w $end
$var wire 2 w# result_src_m [1:0] $end
$var wire 3 x# tid_m [2:0] $end
$var wire 3 y# tid_w [2:0] $end
$var wire 32 z# result_w [31:0] $end
$scope module result_mux $end
$var wire 32 {# in1 [31:0] $end
$var wire 32 |# in2 [31:0] $end
$var wire 32 }# in3 [31:0] $end
$var wire 2 ~# sel [1:0] $end
$var reg 32 !$ out [31:0] $end
$upscope $end
$upscope $end
$upscope $end
$upscope $end
$enddefinitions $end
#0
$dumpvars
bx !$
bx ~#
bx }#
bx |#
bx {#
bx z#
bx y#
bx x#
bx w#
bx v#
bx u#
bx t#
bx s#
bx r#
bx q#
bx p#
bx o#
bx n#
bx m#
bx l#
bx k#
bx j#
bx i#
bx h#
bx g#
0f#
bx e#
b1000000 d#
bx c#
bx b#
bx a#
bx `#
bx _#
bx ^#
bx ]#
bx \#
bx [#
bx Z#
bx Y#
bx X#
bx W#
bx V#
bx U#
bx T#
bx S#
bx R#
bx Q#
bx P#
bx O#
bx N#
bx M#
bx L#
bx K#
bx J#
bx I#
bx H#
bx G#
bx F#
bx E#
bx D#
bx C#
bx B#
bx A#
0@#
bx ?#
bx >#
bx =#
bx <#
bx ;#
bx :#
bx 9#
bx 8#
07#
bx 6#
bx 5#
bx 4#
bx 3#
bx 2#
bx 1#
bx 0#
x/#
bx .#
bx -#
bx ,#
bx +#
bx *#
bx )#
bx (#
bx '#
bx &#
bx %#
bx $#
bx ##
bx "#
bx !#
bx ~"
bx }"
bx |"
bx {"
bx z"
bx y"
bx x"
bx w"
bx v"
bx u"
bx t"
bx s"
bx r"
bx q"
bx p"
bx o"
bx n"
bx m"
bx l"
bx k"
bx j"
bx i"
bx h"
bx g"
bx f"
bx e"
bx d"
bx c"
bx b"
bx a"
bx `"
bx _"
0^"
b11111111 ]"
bx \"
bx ["
bx Z"
bx Y"
bz X"
bx W"
bx V"
bx U"
bx T"
bx S"
bx R"
bx Q"
bx P"
bx O"
bx N"
bx M"
xL"
bx K"
bx J"
bx I"
bx H"
bx G"
bx F"
bx E"
bx D"
bx C"
bx B"
bx A"
bx @"
bx ?"
bx >"
bx ="
bx <"
bx ;"
bx :"
bz 9"
bx 8"
bx 7"
bx 6"
bx 5"
bx 4"
bx 3"
bx 2"
bx 1"
bx 0"
bx /"
bx ."
bx -"
bx ,"
bx +"
bx *"
bx )"
bx ("
bx '"
bx &"
bx %"
bx $"
bx #"
bx ""
bx !"
bx ~
bz }
bx |
0{
xz
xy
bx x
bx w
bx v
bx u
bx t
bx s
bx r
xq
xp
xo
xn
xm
xl
bx k
bx j
bx i
bx h
bx g
bx f
bx e
bx d
xc
xb
xa
x`
x_
x^
bx ]
bx \
bx [
bx Z
bx Y
bx X
bx W
bx V
bx U
bx T
bx S
bx R
xQ
bx P
bx O
bx N
bx M
bx L
bx K
bx J
bx I
bx H
bx G
bx F
bx E
bx D
xC
xB
xA
x@
x?
x>
x=
bx <
bx ;
bx :
bx 9
bx 8
bx 7
bx 6
bx 5
bx 4
bx 3
bx 2
bx 1
bx 0
bx /
bx .
bx -
bx ,
bx +
bx *
bx )
bx (
bx '
bz &
bx %
1$
0#
bx "
bx !
$end
#5
0C
b0 <
b0 #"
b0 @"
b0 N"
0a
0c
0m
0q
0o
0z
b0 G"
b0 O"
b0 R"
b0 g
b0 '"
b0 F"
b0 T"
b0 %
b0 |
b0 8"
b0 W"
b0 x
b0 )"
b0 I"
b0 J"
b0 P"
b0 Q"
b0 v
b0 e"
b0 $#
b0 0#
0Q
b0 E
b0 ]#
b0 c#
b0 i#
b0 L
b0 $"
b0 B"
b0 4
b0 !"
b0 ="
b0 6
b0 ""
b0 >"
b0 k
b0 ("
b0 H"
b0 S"
b0 V"
b0 U"
0L"
b0 K"
b0 M"
b0 P
b0 !#
b0 2#
b0 B#
b0 L#
b0 "#
b0 3#
b0 6#
b0 %#
b0 (#
b0 ,#
b0 ##
b0 +#
b0 .#
0/#
b0 `#
b0 b#
b0 !
b0 '
b0 r
b0 ?"
b0 Y"
b0 z#
b0 !$
b0 .
b0 8#
b0 D#
b0 E#
b0 M#
b0 P#
b0 2
b0 ~
b0 :"
b0 -
b0 <"
b0 ["
b0 ?#
b0 d
b0 E"
b0 <#
b0 Y
b0 %"
b0 7"
b0 T
b0 C"
b0 >#
b0 ]
b0 &"
b0 6"
b0 Z
b0 D"
b0 =#
b0 0
b0 `"
b0 }"
b0 C#
b0 K#
b0 1
b0 5"
b0 |"
b0 W
b0 c"
b0 s"
b0 X
b0 ."
b0 r"
b0 f
b0 ,"
b0 p"
b0 *#
b0 1#
b0 J
b0 b"
b0 w"
b0 K
b0 1"
b0 v"
b0 3
b0 4"
b0 {"
b0 5
b0 3"
b0 z"
b0 \
b0 -"
b0 q"
b0 '#
b0 4#
b0 )
b0 _"
b0 ~"
b0 M
b0 0"
b0 u"
b0 )#
b0 N
b0 /"
b0 t"
b0 &#
b0 5#
0y
0p
0n
b0 i
b0 d"
b0 o"
b0 j
b0 +"
b0 n"
b0 w
b0 *"
b0 m"
b0 -#
0l
0b
0_
0`
b0 :
b0 a"
b0 y"
b0 ;
b0 2"
b0 x"
0A
0B
b0 ,
b0 [#
b0 k#
b0 /
b0 k"
b0 Z#
b0 S
b0 U#
b0 g#
b0 V
b0 h"
b0 T#
b0 H
b0 W#
b0 h#
b0 I
b0 i"
b0 V#
b0 (
b0 l"
b0 \#
b0 a#
b0 t
b0 R#
b0 e#
b0 u
b0 f"
b0 Q#
b0 ^#
b0 h
b0 g"
b0 S#
b0 _#
b0 8
b0 Y#
b0 j#
b0 9
b0 j"
b0 X#
0^
0?
0@
b0 *
b0 ;"
b0 Z"
b0 y#
b0 +
b0 q#
b0 x#
b11111111111111111111111111111100 "
b11111111111111111111111111111100 O
b0 R
b0 m#
b0 s#
b0 }#
b0 F
b0 A"
b0 \"
b0 u#
b0 G
b0 n#
b0 t#
b0 D
b0 o#
b0 v#
b0 |#
b0 s
b0 l#
b0 r#
b0 {#
b0 7
b0 p#
b0 w#
b0 ~#
0=
0>
b1000 O#
1#
#10
0#
0$
#15
bx v
bx e"
bx $#
bx 0#
bx g
bx '"
bx F"
bx T"
bx %
bx |
bx 8"
bx W"
bz ##
bz +#
bz .#
bx L
bx $"
bx B"
bx 4
bx !"
bx ="
bx 6
bx ""
bx >"
bx k
bx ("
bx H"
bx S"
bx V"
bx U"
xL"
bx K"
bx M"
b100000000000010010011 e
b100000000000010010011 ;#
b100000000000010010011 H#
b100000000000010010011 I#
bz )
bz _"
bz ~"
bz M
bz 0"
bz u"
bz )#
bx d
bx E"
bx <#
bx Y
bx %"
bx 7"
bx T
bx C"
bx >#
bx ]
bx &"
bx 6"
bx Z
bx D"
bx =#
b100 U
b100 9#
b100 F#
b0 [
b0 :#
b0 A#
b0 G#
b0 J#
b0 N#
b1 .
b1 8#
b1 D#
b1 E#
b1 M#
b1 P#
1#
#20
0#
#25
1C
1o
b1 g
b1 '"
b1 F"
b1 T"
b0 %
b0 |
b0 8"
b0 W"
b100000010000 Q"
b1 L
b1 $"
b1 B"
b1 4
b1 !"
b1 ="
b0 6
b0 ""
b0 >"
b0 k
b0 ("
b0 H"
b10000000000001 S"
b1 V"
b0 U"
0L"
b0 K"
b10011 M"
bx "#
bx 3#
bx 6#
bx %#
bx (#
bx ,#
x/#
bx `#
bx b#
b10 .
b10 8#
b10 D#
b10 E#
b10 M#
b10 P#
b1 2
b1 ~
b1 :"
b1 -
b1 <"
b1 ["
b1 ?#
b100000000000010010011 d
b100000000000010010011 E"
b100000000000010010011 <#
b100 Y
b100 %"
b100 7"
b100 T
b100 C"
b100 >#
b0 ]
b0 &"
b0 6"
b0 Z
b0 D"
b0 =#
bx W
bx c"
bx s"
bx X
bx ."
bx r"
bx P
bx !#
bx 2#
bx B#
bx L#
bx f
bx ,"
bx p"
bx *#
bx 1#
bx J
bx b"
bx w"
bx K
bx 1"
bx v"
bx 3
bx 4"
bx {"
bx 5
bx 3"
bx z"
bx \
bx -"
bx q"
bx '#
bx 4#
bx N
bx /"
bx t"
bx &#
bx 5#
bx i
bx d"
bx o"
bx j
bx +"
bx n"
bz (
bz l"
bz \#
bz a#
bx t
bx R#
bx e#
bx u
bx f"
bx Q#
bx ^#
1#
#30
0#
#35
b1 v
b1 e"
b1 $#
b1 0#
bx !
bx '
bx r
bx ?"
bx Y"
bx z#
bx !$
b1 P
b1 !#
b1 2#
b1 B#
b1 L#
b0 "#
b0 3#
b0 6#
b0 %#
b0 (#
b0 ,#
b1 ##
b1 +#
b1 .#
0/#
bx s
bx l#
bx r#
bx {#
bx S
bx U#
bx g#
bx V
bx h"
bx T#
bx H
bx W#
bx h#
bx I
bx i"
bx V#
bx h
bx g"
bx S#
bx _#
b1 0
b1 `"
b1 }"
b1 C#
b1 K#
b1 1
b1 5"
b1 |"
b100 W
b100 c"
b100 s"
b100 X
b100 ."
b100 r"
b1 f
b1 ,"
b1 p"
b1 *#
b1 1#
b1 J
b1 b"
b1 w"
b1 K
b1 1"
b1 v"
b1 3
b1 4"
b1 {"
b0 5
b0 3"
b0 z"
b0 \
b0 -"
b0 q"
b0 '#
b0 4#
b0 N
b0 /"
b0 t"
b0 &#
b0 5#
1n
b0 i
b0 d"
b0 o"
b0 j
b0 +"
b0 n"
1A
1B
b10 2
b10 ~
b10 :"
b10 -
b10 <"
b10 ["
b10 ?#
b11 .
b11 8#
b11 D#
b11 E#
b11 M#
b11 P#
1#
#40
0#
#45
b0 `#
b0 b#
b0 E
b0 ]#
b0 c#
b0 i#
b100 .
b100 8#
b100 D#
b100 E#
b100 M#
b100 P#
b11 2
b11 ~
b11 :"
b11 -
b11 <"
b11 ["
b11 ?#
b10 0
b10 `"
b10 }"
b10 C#
b10 K#
b10 1
b10 5"
b10 |"
b1 ,
b1 [#
b1 k#
b1 /
b1 k"
b1 Z#
b100 S
b100 U#
b100 g#
b100 V
b100 h"
b100 T#
b1 H
b1 W#
b1 h#
b1 I
b1 i"
b1 V#
b1 t
b1 R#
b1 e#
b1 u
b1 f"
b1 Q#
b1 ^#
b0 h
b0 g"
b0 S#
b0 _#
1?
1@
bx "
bx O
bx R
bx m#
bx s#
bx }#
bx F
bx A"
bx \"
bx u#
bx G
bx n#
bx t#
1#
#50
0#
#55
b1 !
b1 '
b1 r
b1 ?"
b1 Y"
b1 z#
b1 !$
b1 *
b1 ;"
b1 Z"
b1 y#
b1 +
b1 q#
b1 x#
b0 "
b0 O
b100 R
b100 m#
b100 s#
b100 }#
b1 F
b1 A"
b1 \"
b1 u#
b1 G
b1 n#
b1 t#
b1 s
b1 l#
b1 r#
b1 {#
1=
1>
b10 ,
b10 [#
b10 k#
b10 /
b10 k"
b10 Z#
b11 0
b11 `"
b11 }"
b11 C#
b11 K#
b11 1
b11 5"
b11 |"
b100 2
b100 ~
b100 :"
b100 -
b100 <"
b100 ["
b100 ?#
b101 .
b101 8#
b101 D#
b101 E#
b101 M#
b101 P#
1#
#60
0#
#65
b110 .
b110 8#
b110 D#
b110 E#
b110 M#
b110 P#
b101 2
b101 ~
b101 :"
b101 -
b101 <"
b101 ["
b101 ?#
b100 0
b100 `"
b100 }"
b100 C#
b100 K#
b100 1
b100 5"
b100 |"
b11 ,
b11 [#
b11 k#
b11 /
b11 k"
b11 Z#
b10 *
b10 ;"
b10 Z"
b10 y#
b10 +
b10 q#
b10 x#
1#
#70
0#
#75
b11 *
b11 ;"
b11 Z"
b11 y#
b11 +
b11 q#
b11 x#
b100 ,
b100 [#
b100 k#
b100 /
b100 k"
b100 Z#
b101 0
b101 `"
b101 }"
b101 C#
b101 K#
b101 1
b101 5"
b101 |"
b110 2
b110 ~
b110 :"
b110 -
b110 <"
b110 ["
b110 ?#
b111 .
b111 8#
b111 D#
b111 E#
b111 M#
b111 P#
1#
#80
0#
#85
b0 .
b0 8#
b0 D#
b0 E#
b0 M#
b0 P#
b111 2
b111 ~
b111 :"
b111 -
b111 <"
b111 ["
b111 ?#
b110 0
b110 `"
b110 }"
b110 C#
b110 K#
b110 1
b110 5"
b110 |"
b101 ,
b101 [#
b101 k#
b101 /
b101 k"
b101 Z#
b100 *
b100 ;"
b100 Z"
b100 y#
b100 +
b100 q#
b100 x#
1#
#90
0#
#95
b1000010011 e
b1000010011 ;#
b1000010011 H#
b1000010011 I#
b101 *
b101 ;"
b101 Z"
b101 y#
b101 +
b101 q#
b101 x#
b110 ,
b110 [#
b110 k#
b110 /
b110 k"
b110 Z#
b111 0
b111 `"
b111 }"
b111 C#
b111 K#
b111 1
b111 5"
b111 |"
b0 2
b0 ~
b0 :"
b0 -
b0 <"
b0 ["
b0 ?#
b10000 U
b10000 9#
b10000 F#
b1100 [
b1100 :#
b1100 A#
b1100 G#
b1100 J#
b1100 N#
b1 .
b1 8#
b1 D#
b1 E#
b1 M#
b1 P#
1#
#100
0#
#105
b0 g
b0 '"
b0 F"
b0 T"
b1000000000000000100010011 e
b1000000000000000100010011 ;#
b1000000000000000100010011 H#
b1000000000000000100010011 I#
b100 L
b100 $"
b100 B"
b0 4
b0 !"
b0 ="
b100 S"
b0 V"
b10 .
b10 8#
b10 D#
b10 E#
b10 M#
b10 P#
b1000 U
b1000 9#
b1000 F#
b100 [
b100 :#
b100 A#
b100 G#
b100 J#
b100 N#
b1 2
b1 ~
b1 :"
b1 -
b1 <"
b1 ["
b1 ?#
b1000010011 d
b1000010011 E"
b1000010011 <#
b10000 Y
b10000 %"
b10000 7"
b10000 T
b10000 C"
b10000 >#
b1100 ]
b1100 &"
b1100 6"
b1100 Z
b1100 D"
b1100 =#
b0 0
b0 `"
b0 }"
b0 C#
b0 K#
b0 1
b0 5"
b0 |"
b111 ,
b111 [#
b111 k#
b111 /
b111 k"
b111 Z#
b110 *
b110 ;"
b110 Z"
b110 y#
b110 +
b110 q#
b110 x#
1#
#110
0#
