v4/dumpfile.vcd
$version Generated by VerilatedVcd $end
$timescale 1ps $end
 $scope module $rootio $end
 $upscope $end
 $scope module mt_cpu_tb $end
  $var wire 32 r ADDRESS_WIDTH [31:0] $end
  $var wire 32 r DATA_WIDTH [31:0] $end
  $var wire 32 s NUM_THREADS [31:0] $end
  $var wire 32 t DMEM_SIZE [31:0] $end
  $var wire 32 u IMEM_SIZE [31:0] $end
  $var wire 1 k rst $end
  $var wire 1 l clk $end
  $var wire 32 # result [31:0] $end
  $var wire 32 $ pcw [31:0] $end
  $scope module dut $end
   $var wire 32 r DATA_WIDTH [31:0] $end
   $var wire 32 r ADDRESS_WIDTH [31:0] $end
   $var wire 32 u IMEM_SIZE [31:0] $end
   $var wire 32 t DMEM_SIZE [31:0] $end
   $var wire 32 s NUM_THREADS [31:0] $end
   $var wire 1 l clk $end
   $var wire 1 k rst $end
   $var wire 32 # result [31:0] $end
   $var wire 32 $ pcw [31:0] $end
   $var wire 32 v BITS_THREADS [31:0] $end
   $var wire 32 % pc_f_o [31:0] $end
   $var wire 32 & pc_plus4_f_o [31:0] $end
   $var wire 32 m instr_f_o [31:0] $end
   $var wire 2 ' tid_f_o [1:0] $end
   $var wire 32 ( pc_d_i [31:0] $end
   $var wire 32 ) pc_plus4_d_i [31:0] $end
   $var wire 32 * instr_d_i [31:0] $end
   $var wire 2 + tid_d_i [1:0] $end
   $var wire 32 n rd1_d_o [31:0] $end
   $var wire 32 o rd2_d_o [31:0] $end
   $var wire 32 , imm_val_d_o [31:0] $end
   $var wire 32 ( pc_d_o [31:0] $end
   $var wire 32 ) pc_plus4_d_o [31:0] $end
   $var wire 5 - rd_d_o [4:0] $end
   $var wire 4 . alu_control_d_o [3:0] $end
   $var wire 2 / res_src_d_o [1:0] $end
   $var wire 1 0 mem_write_d_o $end
   $var wire 1 1 reg_write_d_o $end
   $var wire 1 2 jump_d_o $end
   $var wire 1 3 branch_d_o $end
   $var wire 1 4 alu_src_a_d_o $end
   $var wire 1 5 alu_src_b_d_o $end
   $var wire 3 6 funct3_d_o [2:0] $end
   $var wire 2 + tid_d_o [1:0] $end
   $var wire 32 7 rd1_e_i [31:0] $end
   $var wire 32 8 rd2_e_i [31:0] $end
   $var wire 32 9 imm_val_e_i [31:0] $end
   $var wire 32 : pc_e_i [31:0] $end
   $var wire 32 ; pc_plus4_e_i [31:0] $end
   $var wire 5 < rd_e_i [4:0] $end
   $var wire 4 = alu_control_e_i [3:0] $end
   $var wire 2 > res_src_e_i [1:0] $end
   $var wire 1 ? mem_write_e_i $end
   $var wire 1 @ reg_write_e_i $end
   $var wire 1 A jump_e_i $end
   $var wire 1 B branch_e_i $end
   $var wire 1 C alu_src_a_e_i $end
   $var wire 1 D alu_src_b_e_i $end
   $var wire 3 E funct3_e_i [2:0] $end
   $var wire 2 F tid_e_i [1:0] $end
   $var wire 32 G alu_result_e_o [31:0] $end
   $var wire 32 8 write_data_e_o [31:0] $end
   $var wire 32 G pc_target_e_o [31:0] $end
   $var wire 32 ; pc_plus4_e_o [31:0] $end
   $var wire 1 H pc_src_e_o $end
   $var wire 1 ? mem_write_e_o $end
   $var wire 1 @ reg_write_e_o $end
   $var wire 2 > res_src_e_o [1:0] $end
   $var wire 3 E funct3_e_o [2:0] $end
   $var wire 5 < rd_e_o [4:0] $end
   $var wire 2 F tid_e_o [1:0] $end
   $var wire 32 I alu_result_m_i [31:0] $end
   $var wire 32 J write_data_m_i [31:0] $end
   $var wire 32 K pc_plus4_m_i [31:0] $end
   $var wire 1 L mem_write_m_i $end
   $var wire 1 M reg_write_m_i $end
   $var wire 2 N res_src_m_i [1:0] $end
   $var wire 3 O funct3_m_i [2:0] $end
   $var wire 5 P rd_m_i [4:0] $end
   $var wire 2 Q tid_m_i [1:0] $end
   $var wire 1 M reg_write_m_o $end
   $var wire 2 N result_src_m_o [1:0] $end
   $var wire 32 I alu_result_m_o [31:0] $end
   $var wire 32 R read_data_m_o [31:0] $end
   $var wire 5 P rd_m_o [4:0] $end
   $var wire 32 K pc_plus4_m_o [31:0] $end
   $var wire 2 Q tid_m_o [1:0] $end
   $var wire 1 S reg_write_w_i $end
   $var wire 2 T result_src_w_i [1:0] $end
   $var wire 32 # alu_result_w_i [31:0] $end
   $var wire 32 U read_data_w_i [31:0] $end
   $var wire 5 V rd_w_i [4:0] $end
   $var wire 32 W pc_plus4_w_i [31:0] $end
   $var wire 2 X tid_w_i [1:0] $end
   $var wire 32 Y alu_result_w_o [31:0] $end
   $var wire 1 S reg_write_w_o $end
   $var wire 5 V rd_w_o [4:0] $end
   $var wire 2 X tid_w_o [1:0] $end
   $scope module de $end
    $var wire 32 r ADDRESS_WIDTH [31:0] $end
    $var wire 32 r DATA_WIDTH [31:0] $end
    $var wire 32 s NUM_THREADS [31:0] $end
    $var wire 1 l clk $end
    $var wire 1 w en $end
    $var wire 1 k clr $end
    $var wire 1 1 reg_write_d $end
    $var wire 2 / res_src_d [1:0] $end
    $var wire 1 0 mem_write_d $end
    $var wire 1 2 jump_d $end
    $var wire 1 3 branch_d $end
    $var wire 4 . alu_control_d [3:0] $end
    $var wire 3 6 funct3_d [14:12] $end
    $var wire 1 5 alu_src_b_d $end
    $var wire 1 4 alu_src_a_d $end
    $var wire 32 n rd1_d [31:0] $end
    $var wire 32 o rd2_d [31:0] $end
    $var wire 32 ( pc_d [31:0] $end
    $var wire 5 - rd_d [4:0] $end
    $var wire 32 , imm_val_d [31:0] $end
    $var wire 32 ) pc_plus4_d [31:0] $end
    $var wire 2 + tid_d [1:0] $end
    $var wire 1 @ reg_write_e $end
    $var wire 2 > res_src_e [1:0] $end
    $var wire 1 ? mem_write_e $end
    $var wire 1 A jump_e $end
    $var wire 1 B branch_e $end
    $var wire 4 = alu_control_e [3:0] $end
    $var wire 3 E funct3_e [14:12] $end
    $var wire 1 D alu_src_b_e $end
    $var wire 1 C alu_src_a_e $end
    $var wire 32 7 rd1_e [31:0] $end
    $var wire 32 8 rd2_e [31:0] $end
    $var wire 32 : pc_e [31:0] $end
    $var wire 5 < rd_e [4:0] $end
    $var wire 32 9 imm_val_e [31:0] $end
    $var wire 32 ; pc_plus4_e [31:0] $end
    $var wire 2 F tid_e [1:0] $end
    $var wire 32 v BITS_THREADS [31:0] $end
   $upscope $end
   $scope module decode_stage $end
    $var wire 32 r ADDRESS_WIDTH [31:0] $end
    $var wire 32 r DATA_WIDTH [31:0] $end
    $var wire 32 s NUM_THREADS [31:0] $end
    $var wire 1 l clk $end
    $var wire 1 S reg_write_w $end
    $var wire 32 Y result_w [31:0] $end
    $var wire 5 V rd_w [4:0] $end
    $var wire 32 ( pc_f [31:0] $end
    $var wire 32 ) pc_plus4_f [31:0] $end
    $var wire 32 * instr_f [31:0] $end
    $var wire 2 + tid_f [1:0] $end
    $var wire 2 X tid_w [1:0] $end
    $var wire 1 1 reg_write_d $end
    $var wire 2 / res_src_d [1:0] $end
    $var wire 1 0 mem_write_d $end
    $var wire 1 2 jump_d $end
    $var wire 1 3 branch_d $end
    $var wire 4 . alu_control_d [3:0] $end
    $var wire 3 6 funct3_d [2:0] $end
    $var wire 1 5 alu_src_b_d $end
    $var wire 1 4 alu_src_a_d $end
    $var wire 32 n rd1_d [31:0] $end
    $var wire 32 o rd2_d [31:0] $end
    $var wire 32 ( pc_d [31:0] $end
    $var wire 5 - rd_d [4:0] $end
    $var wire 32 , imm_val_d [31:0] $end
    $var wire 32 ) pc_plus4_d [31:0] $end
    $var wire 2 + tid_d [1:0] $end
    $var wire 32 v BITS_THREADS [31:0] $end
    $var wire 3 Z imm_src_d [2:0] $end
    $scope module cu $end
     $var wire 7 [ op [6:0] $end
     $var wire 3 6 funct3 [14:12] $end
     $var wire 1 \ funct7b5 $end
     $var wire 1 1 reg_write_d $end
     $var wire 2 / res_src_d [1:0] $end
     $var wire 1 0 mem_write_d $end
     $var wire 1 2 jump_d $end
     $var wire 1 3 branch_d $end
     $var wire 4 . alu_control_d [3:0] $end
     $var wire 1 5 alu_src_b_d $end
     $var wire 1 4 alu_src_a_d $end
     $var wire 3 Z imm_src_d [2:0] $end
     $var wire 11 ] controls [10:0] $end
     $var wire 4 . alu_controls [3:0] $end
    $upscope $end
    $scope module imex $end
     $var wire 25 ^ instr [31:7] $end
     $var wire 3 Z imm_type [2:0] $end
     $var wire 32 , imm_val [31:0] $end
    $upscope $end
    $scope module rf $end
     $var wire 32 s NUM_THREADS [31:0] $end
     $var wire 32 r DATA_WIDTH [31:0] $end
     $var wire 1 l clk $end
     $var wire 1 S write_enable $end
     $var wire 2 + tid_read [1:0] $end
     $var wire 2 X tid_write [1:0] $end
     $var wire 5 _ a1 [4:0] $end
     $var wire 5 ` a2 [4:0] $end
     $var wire 5 V a3 [4:0] $end
     $var wire 32 Y wd3 [31:0] $end
     $var wire 32 n rd1 [31:0] $end
     $var wire 32 o rd2 [31:0] $end
     $var wire 32 v BITS_THREADS [31:0] $end
     $var wire 32 p i [31:0] $end
    $upscope $end
   $upscope $end
   $scope module em $end
    $var wire 32 r ADDRESS_WIDTH [31:0] $end
    $var wire 32 r DATA_WIDTH [31:0] $end
    $var wire 32 s NUM_THREADS [31:0] $end
    $var wire 1 l clk $end
    $var wire 1 w en $end
    $var wire 1 k clr $end
    $var wire 1 @ reg_write_e $end
    $var wire 1 ? mem_write_e $end
    $var wire 2 > result_src_e [1:0] $end
    $var wire 3 E funct3_e [14:12] $end
    $var wire 32 G alu_result_e [31:0] $end
    $var wire 32 8 write_data_e [31:0] $end
    $var wire 5 < rd_e [4:0] $end
    $var wire 32 ; pc_plus4_e [31:0] $end
    $var wire 2 F tid_e [1:0] $end
    $var wire 1 M reg_write_m $end
    $var wire 1 L mem_write_m $end
    $var wire 2 N result_src_m [1:0] $end
    $var wire 3 O funct3_m [14:12] $end
    $var wire 32 I alu_result_m [31:0] $end
    $var wire 32 J write_data_m [31:0] $end
    $var wire 5 P rd_m [4:0] $end
    $var wire 32 K pc_plus4_m [31:0] $end
    $var wire 2 Q tid_m [1:0] $end
    $var wire 32 v BITS_THREADS [31:0] $end
   $upscope $end
   $scope module execute_stage $end
    $var wire 32 r DATA_WIDTH [31:0] $end
    $var wire 32 r ADDRESS_WIDTH [31:0] $end
    $var wire 32 s NUM_THREADS [31:0] $end
    $var wire 1 @ reg_write_d $end
    $var wire 2 > res_src_d [1:0] $end
    $var wire 1 ? mem_write_d $end
    $var wire 1 A jump_d $end
    $var wire 1 B branch_d $end
    $var wire 4 = alu_control_d [3:0] $end
    $var wire 3 E funct3_d [14:12] $end
    $var wire 1 D alu_src_b_d $end
    $var wire 1 C alu_src_a_d $end
    $var wire 32 7 rd1_d [31:0] $end
    $var wire 32 8 rd2_d [31:0] $end
    $var wire 32 : pc_d [31:0] $end
    $var wire 5 < rd_d [4:0] $end
    $var wire 32 9 imm_val_d [31:0] $end
    $var wire 32 ; pc_plus4_d [31:0] $end
    $var wire 2 F tid_d [1:0] $end
    $var wire 1 @ reg_write_e $end
    $var wire 2 > res_src_e [1:0] $end
    $var wire 1 ? mem_write_e $end
    $var wire 3 E funct3_e [14:12] $end
    $var wire 32 G alu_result_e [31:0] $end
    $var wire 32 8 write_data_e [31:0] $end
    $var wire 5 < rd_e [4:0] $end
    $var wire 32 ; pc_plus4_e [31:0] $end
    $var wire 32 G pc_target_e [31:0] $end
    $var wire 1 H pc_src_e $end
    $var wire 2 F tid_e [1:0] $end
    $var wire 32 v BITS_THREADS [31:0] $end
    $var wire 32 a a_alu [31:0] $end
    $var wire 32 b b_alu [31:0] $end
    $var wire 1 c branch_result $end
    $scope module bu $end
     $var wire 32 r DATA_WIDTH [31:0] $end
     $var wire 32 7 a [31:0] $end
     $var wire 32 8 b [31:0] $end
     $var wire 3 E funct3 [2:0] $end
     $var wire 1 c branch_result $end
    $upscope $end
    $scope module main_alu $end
     $var wire 32 r DATA_WIDTH [31:0] $end
     $var wire 32 a a [31:0] $end
     $var wire 32 b b [31:0] $end
     $var wire 4 = alu_controls [3:0] $end
     $var wire 32 G res [31:0] $end
    $upscope $end
   $upscope $end
   $scope module fd $end
    $var wire 32 r ADDRESS_WIDTH [31:0] $end
    $var wire 32 r DATA_WIDTH [31:0] $end
    $var wire 32 s NUM_THREADS [31:0] $end
    $var wire 1 l clk $end
    $var wire 1 w en $end
    $var wire 1 k clr $end
    $var wire 32 % pc_f [31:0] $end
    $var wire 32 & pc_plus4_f [31:0] $end
    $var wire 32 m instr_f [31:0] $end
    $var wire 2 ' tid_f [1:0] $end
    $var wire 32 ( pc_d [31:0] $end
    $var wire 32 ) pc_plus4_d [31:0] $end
    $var wire 32 * instr_d [31:0] $end
    $var wire 2 + tid_d [1:0] $end
    $var wire 32 v BITS_THREADS [31:0] $end
   $upscope $end
   $scope module fetch_stage $end
    $var wire 32 r DATA_WIDTH [31:0] $end
    $var wire 32 r ADDRESS_WIDTH [31:0] $end
    $var wire 32 u IMEM_SIZE [31:0] $end
    $var wire 32 s NUM_THREADS [31:0] $end
    $var wire 1 l clk $end
    $var wire 1 k rst $end
    $var wire 1 H pc_src_e $end
    $var wire 32 G pc_target_e [31:0] $end
    $var wire 2 F tid_e [1:0] $end
    $var wire 32 % pc_f [31:0] $end
    $var wire 32 & pc_plus4_f [31:0] $end
    $var wire 32 m instr_f [31:0] $end
    $var wire 2 ' tid_f [1:0] $end
    $var wire 32 v BITS_THREADS [31:0] $end
    $var wire 32 % pc [31:0] $end
    $var wire 2 ' tid [1:0] $end
    $scope module i_mem $end
     $var wire 32 r ADDRESS_WIDTH [31:0] $end
     $var wire 32 r DATA_WIDTH [31:0] $end
     $var wire 32 u MEM_SIZE [31:0] $end
     $var wire 32 % instr_addr [31:0] $end
     $var wire 32 m instr [31:0] $end
    $upscope $end
    $scope module thread_pc $end
     $var wire 32 s NUM_THREADS [31:0] $end
     $var wire 32 r ADDRESS_WIDTH [31:0] $end
     $var wire 1 l clk $end
     $var wire 1 k rst $end
     $var wire 2 ' tid [1:0] $end
     $var wire 1 H pc_src_e $end
     $var wire 2 F branch_tid_e [1:0] $end
     $var wire 32 G pc_target_e [31:0] $end
     $var wire 32 % pc [31:0] $end
     $var wire 32 & pc_plus4 [31:0] $end
     $var wire 32 v BITS_THREADS [31:0] $end
     $var wire 32 d t_pc[0] [31:0] $end
     $var wire 32 e t_pc[1] [31:0] $end
     $var wire 32 f t_pc[2] [31:0] $end
     $var wire 32 g t_pc[3] [31:0] $end
     $var wire 32 h i [31:0] $end
    $upscope $end
    $scope module ts $end
     $var wire 32 s NUM_THREADS [31:0] $end
     $var wire 1 l clk $end
     $var wire 1 k rst $end
     $var wire 2 ' tid [1:0] $end
     $var wire 32 v BITS_THREADS [31:0] $end
    $upscope $end
   $upscope $end
   $scope module memory_stage $end
    $var wire 32 r ADDRESS_WIDTH [31:0] $end
    $var wire 32 r DATA_WIDTH [31:0] $end
    $var wire 32 t DMEM_SIZE [31:0] $end
    $var wire 32 s NUM_THREADS [31:0] $end
    $var wire 1 l clk $end
    $var wire 1 M reg_write_e $end
    $var wire 2 N result_src_e [1:0] $end
    $var wire 1 L mem_write_e $end
    $var wire 3 O funct3_e [14:12] $end
    $var wire 32 I alu_result_e [31:0] $end
    $var wire 32 J write_data_e [31:0] $end
    $var wire 5 P rd_e [4:0] $end
    $var wire 32 K pc_plus4_e [31:0] $end
    $var wire 2 Q tid_e [1:0] $end
    $var wire 1 M reg_write_m $end
    $var wire 2 N result_src_m [1:0] $end
    $var wire 32 I alu_result_m [31:0] $end
    $var wire 32 R read_data_m [31:0] $end
    $var wire 5 P rd_m [4:0] $end
    $var wire 32 K pc_plus4_m [31:0] $end
    $var wire 2 Q tid_m [1:0] $end
    $var wire 32 v BITS_THREADS [31:0] $end
    $scope module dm $end
     $var wire 32 r ADDRESS_WIDTH [31:0] $end
     $var wire 32 r DATA_WIDTH [31:0] $end
     $var wire 32 t MEM_SIZE [31:0] $end
     $var wire 1 l clk $end
     $var wire 1 L mem_write_e $end
     $var wire 3 O funct3 [14:12] $end
     $var wire 32 I data_mem_addr [31:0] $end
     $var wire 32 J write_data_e [31:0] $end
     $var wire 32 R read_data_m [31:0] $end
     $var wire 32 i word_addr [31:0] $end
     $var wire 32 j word [31:0] $end
     $var wire 32 q i [31:0] $end
    $upscope $end
   $upscope $end
   $scope module mw $end
    $var wire 32 r ADDRESS_WIDTH [31:0] $end
    $var wire 32 r DATA_WIDTH [31:0] $end
    $var wire 32 s NUM_THREADS [31:0] $end
    $var wire 1 l clk $end
    $var wire 1 w en $end
    $var wire 1 k clr $end
    $var wire 1 M reg_write_m $end
    $var wire 2 N result_src_m [1:0] $end
    $var wire 32 I alu_result_m [31:0] $end
    $var wire 32 R read_data_m [31:0] $end
    $var wire 5 P rd_m [4:0] $end
    $var wire 32 K pc_plus4_m [31:0] $end
    $var wire 2 Q tid_m [1:0] $end
    $var wire 1 S reg_write_w $end
    $var wire 2 T result_src_w [1:0] $end
    $var wire 32 # alu_result_w [31:0] $end
    $var wire 32 U read_data_w [31:0] $end
    $var wire 5 V rd_w [4:0] $end
    $var wire 32 W pc_plus4_w [31:0] $end
    $var wire 2 X tid_w [1:0] $end
    $var wire 32 v BITS_THREADS [31:0] $end
   $upscope $end
   $scope module writeback_stage $end
    $var wire 32 r ADDRESS_WIDTH [31:0] $end
    $var wire 32 r DATA_WIDTH [31:0] $end
    $var wire 32 s NUM_THREADS [31:0] $end
    $var wire 1 S reg_write_m $end
    $var wire 2 T result_src_m [1:0] $end
    $var wire 32 # alu_result_m [31:0] $end
    $var wire 32 U read_data_m [31:0] $end
    $var wire 5 V rd_m [4:0] $end
    $var wire 32 W pc_plus4_m [31:0] $end
    $var wire 2 X tid_m [1:0] $end
    $var wire 32 Y result_w [31:0] $end
    $var wire 1 S reg_write_w $end
    $var wire 5 V rd_w [4:0] $end
    $var wire 2 X tid_w [1:0] $end
    $var wire 32 v BITS_THREADS [31:0] $end
    $scope module result_mux $end
     $var wire 32 r DATA_WIDTH [31:0] $end
     $var wire 32 # in1 [31:0] $end
     $var wire 32 U in2 [31:0] $end
     $var wire 32 W in3 [31:0] $end
     $var wire 2 T sel [1:0] $end
     $var wire 32 Y out [31:0] $end
    $upscope $end
   $upscope $end
  $upscope $end
 $upscope $end
$enddefinitions $end


#0
b00000000000000000000000000000000 #
b11111111111111111111111111111100 $
b00000000000000000000000000000000 %
b00000000000000000000000000000100 &
b00 '
b00000000000000000000000000000000 (
b00000000000000000000000000000000 )
b00000000000000000000000000000000 *
b00 +
b00000000000000000000000000000000 ,
b00000 -
b0000 .
b00 /
00
01
02
03
04
05
b000 6
b00000000000000000000000000000000 7
b00000000000000000000000000000000 8
b00000000000000000000000000000000 9
b00000000000000000000000000000000 :
b00000000000000000000000000000000 ;
b00000 <
b0000 =
b00 >
0?
0@
0A
0B
0C
0D
b000 E
b00 F
b00000000000000000000000000000000 G
0H
b00000000000000000000000000000000 I
b00000000000000000000000000000000 J
b00000000000000000000000000000000 K
0L
0M
b00 N
b000 O
b00000 P
b00 Q
b00000000000000000000000000000000 R
0S
b00 T
b00000000000000000000000000000000 U
b00000 V
b00000000000000000000000000000000 W
b00 X
b00000000000000000000000000000000 Y
b000 Z
b0000000 [
0\
b00000000000 ]
b0000000000000000000000000 ^
b00000 _
b00000 `
b00000000000000000000000000000000 a
b00000000000000000000000000000000 b
1c
b00000000000000000000000000000000 d
b00000000000000000000000000000000 e
b00000000000000000000000000000000 f
b00000000000000000000000000000000 g
b00000000000000000000000000000000 h
b00000000000000000000000000000000 i
b00000000000000000000000000000000 j
1k
0l
b00000000000000000001111011101111 m
b00000000000000000000000000000000 n
b00000000000000000000000000000000 o
b00000000000000000000000001111111 p
b00000000000000000000000001000000 q
b00000000000000000000000000100000 r
b00000000000000000000000000000100 s
b00000000000000000000000001000000 t
b00000000000000000000010000000000 u
b00000000000000000000000000000010 v
0w
#10
0k
#75
b01 '
b00000000000000000000000000000100 )
b00000000000000000001111011101111 *
b00000000000000000001000000000000 ,
b11101 -
b10 /
11
12
14
15
b001 6
b011 Z
b1101111 [
b11001011011 ]
b0000000000000000000111101 ^
b00000000000000000000000000000100 d
1l
#150
0l
#225
b10 '
b01 +
b00000000000000000001000000000000 9
b00000000000000000000000000000100 ;
b11101 <
b10 >
1@
1A
1C
1D
b001 E
b00000000000000000001000000000000 G
1H
b00000000000000000001000000000000 b
0c
b00000000000000000000000000000100 e
1l
#300
0l
#375
b11 '
b10 +
b01 F
b00000000000000000001000000000000 I
b00000000000000000000000000000100 K
1M
b10 N
b001 O
b11101 P
b00000000000000000001000000000000 d
b00000000000000000000000000000100 f
1l
#450
0l
#525
b00000000000000000001000000000000 #
b00000000000000000000000000000000 $
b00000000000000000001000000000000 %
b00000000000000000001000000000100 &
b00 '
b11 +
b10 F
b01 Q
1S
b10 T
b11101 V
b00000000000000000000000000000100 W
b00000000000000000000000000000100 Y
b00000000000000000001000000000000 e
b00000000000000000000000000000100 g
1l
#600
0l
#675
b01 '
b00000000000000000001000000000000 (
b00000000000000000001000000000100 )
b00 +
b11 F
b10 Q
b01 X
b00000000000000000001000000000100 d
b00000000000000000001000000000000 f
1l
#750
0l
#825
b10 '
b01 +
b00000000000000000001000000000000 :
b00000000000000000001000000000100 ;
b00 F
b00000000000000000010000000000000 G
b11 Q
b10 X
b00000000000000000001000000000000 a
b00000000000000000001000000000100 e
b00000000000000000001000000000000 g
1l
#900
0l
#975
b11 '
b10 +
b01 F
b00000000000000000010000000000000 I
b00000000000000000001000000000100 K
b00 Q
b11 X
b00000000000000000010000000000000 d
b00000000000000000001000000000100 f
1l
#1050
0l
#1125
b00000000000000000010000000000000 #
b00000000000000000001000000000000 $
b00000000000000000010000000000000 %
b00000000000000000010000000000100 &
b00 '
b11 +
b10 F
b01 Q
b00000000000000000001000000000100 W
b00 X
b00000000000000000001000000000100 Y
b00000000000000000010000000000000 e
b00000000000000000001000000000100 g
1l
#1200
0l
#1275
b01 '
b00000000000000000010000000000000 (
b00000000000000000010000000000100 )
b00 +
b11 F
b10 Q
b01 X
b00000000000000000010000000000100 d
b00000000000000000010000000000000 f
1l
#1350
0l
#1425
b10 '
b01 +
b00000000000000000010000000000000 :
b00000000000000000010000000000100 ;
b00 F
b00000000000000000011000000000000 G
b11 Q
b10 X
b00000000000000000010000000000000 a
b00000000000000000010000000000100 e
b00000000000000000010000000000000 g
1l
#1500
0l
#1575
b11 '
b10 +
b01 F
b00000000000000000011000000000000 I
b00000000000000000010000000000100 K
b00 Q
b11 X
b00000000000000000011000000000000 d
b00000000000000000010000000000100 f
1l
#1650
0l
#1725
b00000000000000000011000000000000 #
b00000000000000000010000000000000 $
b00000000000000000011000000000000 %
b00000000000000000011000000000100 &
b00 '
b11 +
b10 F
b01 Q
b00000000000000000010000000000100 W
b00 X
b00000000000000000010000000000100 Y
b00000000000000000011000000000000 e
b00000000000000000010000000000100 g
1l
#1800
0l
#1875
b01 '
b00000000000000000011000000000000 (
b00000000000000000011000000000100 )
b00 +
b11 F
b10 Q
b01 X
b00000000000000000011000000000100 d
b00000000000000000011000000000000 f
1l
#1950
0l
#2025
b10 '
b01 +
b00000000000000000011000000000000 :
b00000000000000000011000000000100 ;
b00 F
b00000000000000000100000000000000 G
b11 Q
b10 X
b00000000000000000011000000000000 a
b00000000000000000011000000000100 e
b00000000000000000011000000000000 g
1l
#2100
0l
#2175
b11 '
b10 +
b01 F
b00000000000000000100000000000000 I
b00000000000000000011000000000100 K
b00 Q
b11 X
b00000000000000000100000000000000 d
b00000000000000000011000000000100 f
1l
#2250
0l
#2325
b00000000000000000100000000000000 #
b00000000000000000011000000000000 $
b00000000000000000100000000000000 %
b00000000000000000100000000000100 &
b00 '
b11 +
b10 F
b01 Q
b00000000000000000011000000000100 W
b00 X
b00000000000000000011000000000100 Y
b00000000000000000100000000000000 e
b00000000000000000011000000000100 g
1l
#2400
0l
#2475
b01 '
b00000000000000000100000000000000 (
b00000000000000000100000000000100 )
b00 +
b11 F
b10 Q
b01 X
b00000000000000000100000000000100 d
b00000000000000000100000000000000 f
1l
#2550
0l
#2625
b10 '
b01 +
b00000000000000000100000000000000 :
b00000000000000000100000000000100 ;
b00 F
b00000000000000000101000000000000 G
b11 Q
b10 X
b00000000000000000100000000000000 a
b00000000000000000100000000000100 e
b00000000000000000100000000000000 g
1l
#2700
0l
#2775
b11 '
b10 +
b01 F
b00000000000000000101000000000000 I
b00000000000000000100000000000100 K
b00 Q
b11 X
b00000000000000000101000000000000 d
b00000000000000000100000000000100 f
1l
#2850
0l
#2925
b00000000000000000101000000000000 #
b00000000000000000100000000000000 $
b00000000000000000101000000000000 %
b00000000000000000101000000000100 &
b00 '
b11 +
b10 F
b01 Q
b00000000000000000100000000000100 W
b00 X
b00000000000000000100000000000100 Y
b00000000000000000101000000000000 e
b00000000000000000100000000000100 g
1l
#3000
0l
#3075
b01 '
b00000000000000000101000000000000 (
b00000000000000000101000000000100 )
b00 +
b11 F
b10 Q
b01 X
b00000000000000000101000000000100 d
b00000000000000000101000000000000 f
1l
#3150
0l
#3225
b10 '
b01 +
b00000000000000000101000000000000 :
b00000000000000000101000000000100 ;
b00 F
b00000000000000000110000000000000 G
b11 Q
b10 X
b00000000000000000101000000000000 a
b00000000000000000101000000000100 e
b00000000000000000101000000000000 g
1l
#3300
0l
#3375
b11 '
b10 +
b01 F
b00000000000000000110000000000000 I
b00000000000000000101000000000100 K
b00 Q
b11 X
b00000000000000000110000000000000 d
b00000000000000000101000000000100 f
1l
#3450
0l
#3525
b00000000000000000110000000000000 #
b00000000000000000101000000000000 $
b00000000000000000110000000000000 %
b00000000000000000110000000000100 &
b00 '
b11 +
b10 F
b01 Q
b00000000000000000101000000000100 W
b00 X
b00000000000000000101000000000100 Y
b00000000000000000110000000000000 e
b00000000000000000101000000000100 g
1l
#3600
0l
#3675
b01 '
b00000000000000000110000000000000 (
b00000000000000000110000000000100 )
b00 +
b11 F
b10 Q
b01 X
b00000000000000000110000000000100 d
b00000000000000000110000000000000 f
1l
#3750
0l
#3825
b10 '
b01 +
b00000000000000000110000000000000 :
b00000000000000000110000000000100 ;
b00 F
b00000000000000000111000000000000 G
b11 Q
b10 X
b00000000000000000110000000000000 a
b00000000000000000110000000000100 e
b00000000000000000110000000000000 g
1l
#3900
0l
#3975
b11 '
b10 +
b01 F
b00000000000000000111000000000000 I
b00000000000000000110000000000100 K
b00 Q
b11 X
b00000000000000000111000000000000 d
b00000000000000000110000000000100 f
1l
#4050
0l
#4125
b00000000000000000111000000000000 #
b00000000000000000110000000000000 $
b00000000000000000111000000000000 %
b00000000000000000111000000000100 &
b00 '
b11 +
b10 F
b01 Q
b00000000000000000110000000000100 W
b00 X
b00000000000000000110000000000100 Y
b00000000000000000111000000000000 e
b00000000000000000110000000000100 g
1l
#4200
0l
#4275
b01 '
b00000000000000000111000000000000 (
b00000000000000000111000000000100 )
b00 +
b11 F
b10 Q
b01 X
b00000000000000000111000000000100 d
b00000000000000000111000000000000 f
1l
#4350
0l
#4425
b10 '
b01 +
b00000000000000000111000000000000 :
b00000000000000000111000000000100 ;
b00 F
b00000000000000001000000000000000 G
b11 Q
b10 X
b00000000000000000111000000000000 a
b00000000000000000111000000000100 e
b00000000000000000111000000000000 g
1l
#4500
0l
#4575
b11 '
b10 +
b01 F
b00000000000000001000000000000000 I
b00000000000000000111000000000100 K
b00 Q
b11 X
b00000000000000001000000000000000 d
b00000000000000000111000000000100 f
1l
#4650
0l
#4725
b00000000000000001000000000000000 #
b00000000000000000111000000000000 $
b00000000000000001000000000000000 %
b00000000000000001000000000000100 &
b00 '
b11 +
b10 F
b01 Q
b00000000000000000111000000000100 W
b00 X
b00000000000000000111000000000100 Y
b00000000000000001000000000000000 e
b00000000000000000111000000000100 g
1l
#4800
0l
#4875
b01 '
b00000000000000001000000000000000 (
b00000000000000001000000000000100 )
b00 +
b11 F
b10 Q
b01 X
b00000000000000001000000000000100 d
b00000000000000001000000000000000 f
1l
#4950
0l
#5025
b10 '
b01 +
b00000000000000001000000000000000 :
b00000000000000001000000000000100 ;
b00 F
b00000000000000001001000000000000 G
b11 Q
b10 X
b00000000000000001000000000000000 a
b00000000000000001000000000000100 e
b00000000000000001000000000000000 g
1l
#5100
0l
#5175
b11 '
b10 +
b01 F
b00000000000000001001000000000000 I
b00000000000000001000000000000100 K
b00 Q
b11 X
b00000000000000001001000000000000 d
b00000000000000001000000000000100 f
1l
#5250
0l
#5325
b00000000000000001001000000000000 #
b00000000000000001000000000000000 $
b00000000000000001001000000000000 %
b00000000000000001001000000000100 &
b00 '
b11 +
b10 F
b01 Q
b00000000000000001000000000000100 W
b00 X
b00000000000000001000000000000100 Y
b00000000000000001001000000000000 e
b00000000000000001000000000000100 g
1l
#5400
0l
#5475
b01 '
b00000000000000001001000000000000 (
b00000000000000001001000000000100 )
b00 +
b11 F
b10 Q
b01 X
b00000000000000001001000000000100 d
b00000000000000001001000000000000 f
1l
#5550
0l
#5625
b10 '
b01 +
b00000000000000001001000000000000 :
b00000000000000001001000000000100 ;
b00 F
b00000000000000001010000000000000 G
b11 Q
b10 X
b00000000000000001001000000000000 a
b00000000000000001001000000000100 e
b00000000000000001001000000000000 g
1l
#5700
0l
#5775
b11 '
b10 +
b01 F
b00000000000000001010000000000000 I
b00000000000000001001000000000100 K
b00 Q
b11 X
b00000000000000001010000000000000 d
b00000000000000001001000000000100 f
1l
#5850
0l
#5925
b00000000000000001010000000000000 #
b00000000000000001001000000000000 $
b00000000000000001010000000000000 %
b00000000000000001010000000000100 &
b00 '
b11 +
b10 F
b01 Q
b00000000000000001001000000000100 W
b00 X
b00000000000000001001000000000100 Y
b00000000000000001010000000000000 e
b00000000000000001001000000000100 g
1l
