v4/dumpfile.vcd
$version Generated by VerilatedVcd $end
$timescale 1ps $end
 $scope module $rootio $end
 $upscope $end
 $scope module mt_cpu_tb $end
  $var wire 32 -! ADDRESS_WIDTH [31:0] $end
  $var wire 32 -! DATA_WIDTH [31:0] $end
  $var wire 32 .! NUM_THREADS [31:0] $end
  $var wire 32 /! DMEM_SIZE [31:0] $end
  $var wire 32 0! IMEM_SIZE [31:0] $end
  $var wire 1 *! rst $end
  $var wire 1 +! clk $end
  $var wire 32 ) result [31:0] $end
  $var wire 32 * pcw [31:0] $end
  $scope module dut $end
   $var wire 32 -! DATA_WIDTH [31:0] $end
   $var wire 32 -! ADDRESS_WIDTH [31:0] $end
   $var wire 32 0! IMEM_SIZE [31:0] $end
   $var wire 32 /! DMEM_SIZE [31:0] $end
   $var wire 32 .! NUM_THREADS [31:0] $end
   $var wire 1 +! clk $end
   $var wire 1 *! rst $end
   $var wire 32 ) result [31:0] $end
   $var wire 32 * pcw [31:0] $end
   $var wire 32 1! BITS_THREADS [31:0] $end
   $var wire 32 + pc_f_o [31:0] $end
   $var wire 32 , pc_plus4_f_o [31:0] $end
   $var wire 32 # instr_f_o [31:0] $end
   $var wire 2 - tid_f_o [1:0] $end
   $var wire 32 . pc_d_i [31:0] $end
   $var wire 32 / pc_plus4_d_i [31:0] $end
   $var wire 32 0 instr_d_i [31:0] $end
   $var wire 2 1 tid_d_i [1:0] $end
   $var wire 32 2 rd1_d_o [31:0] $end
   $var wire 32 3 rd2_d_o [31:0] $end
   $var wire 32 4 imm_val_d_o [31:0] $end
   $var wire 32 . pc_d_o [31:0] $end
   $var wire 32 / pc_plus4_d_o [31:0] $end
   $var wire 5 5 rd_d_o [4:0] $end
   $var wire 4 6 alu_control_d_o [3:0] $end
   $var wire 2 7 res_src_d_o [1:0] $end
   $var wire 1 8 mem_write_d_o $end
   $var wire 1 9 reg_write_d_o $end
   $var wire 1 : jump_d_o $end
   $var wire 1 ; branch_d_o $end
   $var wire 1 < alu_src_a_d_o $end
   $var wire 1 = alu_src_b_d_o $end
   $var wire 3 > funct3_d_o [2:0] $end
   $var wire 2 1 tid_d_o [1:0] $end
   $var wire 32 ? rd1_e_i [31:0] $end
   $var wire 32 @ rd2_e_i [31:0] $end
   $var wire 32 A imm_val_e_i [31:0] $end
   $var wire 32 B pc_e_i [31:0] $end
   $var wire 32 C pc_plus4_e_i [31:0] $end
   $var wire 5 D rd_e_i [4:0] $end
   $var wire 4 E alu_control_e_i [3:0] $end
   $var wire 2 F res_src_e_i [1:0] $end
   $var wire 1 G mem_write_e_i $end
   $var wire 1 H reg_write_e_i $end
   $var wire 1 I jump_e_i $end
   $var wire 1 J branch_e_i $end
   $var wire 1 K alu_src_a_e_i $end
   $var wire 1 L alu_src_b_e_i $end
   $var wire 3 M funct3_e_i [2:0] $end
   $var wire 2 N tid_e_i [1:0] $end
   $var wire 32 O alu_result_e_o [31:0] $end
   $var wire 32 @ write_data_e_o [31:0] $end
   $var wire 32 O pc_target_e_o [31:0] $end
   $var wire 32 C pc_plus4_e_o [31:0] $end
   $var wire 1 P pc_src_e_o $end
   $var wire 1 G mem_write_e_o $end
   $var wire 1 H reg_write_e_o $end
   $var wire 2 F res_src_e_o [1:0] $end
   $var wire 3 M funct3_e_o [2:0] $end
   $var wire 5 D rd_e_o [4:0] $end
   $var wire 2 N tid_e_o [1:0] $end
   $var wire 32 Q alu_result_m_i [31:0] $end
   $var wire 32 R write_data_m_i [31:0] $end
   $var wire 32 S pc_plus4_m_i [31:0] $end
   $var wire 1 T mem_write_m_i $end
   $var wire 1 U reg_write_m_i $end
   $var wire 2 V res_src_m_i [1:0] $end
   $var wire 3 W funct3_m_i [2:0] $end
   $var wire 5 X rd_m_i [4:0] $end
   $var wire 2 Y tid_m_i [1:0] $end
   $var wire 1 U reg_write_m_o $end
   $var wire 2 V result_src_m_o [1:0] $end
   $var wire 32 Q alu_result_m_o [31:0] $end
   $var wire 32 Z read_data_m_o [31:0] $end
   $var wire 5 X rd_m_o [4:0] $end
   $var wire 32 S pc_plus4_m_o [31:0] $end
   $var wire 2 Y tid_m_o [1:0] $end
   $var wire 1 [ reg_write_w_i $end
   $var wire 2 \ result_src_w_i [1:0] $end
   $var wire 32 ) alu_result_w_i [31:0] $end
   $var wire 32 ] read_data_w_i [31:0] $end
   $var wire 5 ^ rd_w_i [4:0] $end
   $var wire 32 _ pc_plus4_w_i [31:0] $end
   $var wire 2 ` tid_w_i [1:0] $end
   $var wire 32 a alu_result_w_o [31:0] $end
   $var wire 1 [ reg_write_w_o $end
   $var wire 5 ^ rd_w_o [4:0] $end
   $var wire 2 ` tid_w_o [1:0] $end
   $scope module de $end
    $var wire 32 -! ADDRESS_WIDTH [31:0] $end
    $var wire 32 -! DATA_WIDTH [31:0] $end
    $var wire 32 .! NUM_THREADS [31:0] $end
    $var wire 1 +! clk $end
    $var wire 1 2! en $end
    $var wire 1 *! clr $end
    $var wire 1 9 reg_write_d $end
    $var wire 2 7 res_src_d [1:0] $end
    $var wire 1 8 mem_write_d $end
    $var wire 1 : jump_d $end
    $var wire 1 ; branch_d $end
    $var wire 4 6 alu_control_d [3:0] $end
    $var wire 3 > funct3_d [14:12] $end
    $var wire 1 = alu_src_b_d $end
    $var wire 1 < alu_src_a_d $end
    $var wire 32 2 rd1_d [31:0] $end
    $var wire 32 3 rd2_d [31:0] $end
    $var wire 32 . pc_d [31:0] $end
    $var wire 5 5 rd_d [4:0] $end
    $var wire 32 4 imm_val_d [31:0] $end
    $var wire 32 / pc_plus4_d [31:0] $end
    $var wire 2 1 tid_d [1:0] $end
    $var wire 1 H reg_write_e $end
    $var wire 2 F res_src_e [1:0] $end
    $var wire 1 G mem_write_e $end
    $var wire 1 I jump_e $end
    $var wire 1 J branch_e $end
    $var wire 4 E alu_control_e [3:0] $end
    $var wire 3 M funct3_e [14:12] $end
    $var wire 1 L alu_src_b_e $end
    $var wire 1 K alu_src_a_e $end
    $var wire 32 ? rd1_e [31:0] $end
    $var wire 32 @ rd2_e [31:0] $end
    $var wire 32 B pc_e [31:0] $end
    $var wire 5 D rd_e [4:0] $end
    $var wire 32 A imm_val_e [31:0] $end
    $var wire 32 C pc_plus4_e [31:0] $end
    $var wire 2 N tid_e [1:0] $end
    $var wire 32 1! BITS_THREADS [31:0] $end
   $upscope $end
   $scope module decode_stage $end
    $var wire 32 -! ADDRESS_WIDTH [31:0] $end
    $var wire 32 -! DATA_WIDTH [31:0] $end
    $var wire 32 .! NUM_THREADS [31:0] $end
    $var wire 1 +! clk $end
    $var wire 1 [ reg_write_w $end
    $var wire 32 a result_w [31:0] $end
    $var wire 5 ^ rd_w [4:0] $end
    $var wire 32 . pc_f [31:0] $end
    $var wire 32 / pc_plus4_f [31:0] $end
    $var wire 32 0 instr_f [31:0] $end
    $var wire 2 1 tid_f [1:0] $end
    $var wire 2 ` tid_w [1:0] $end
    $var wire 1 9 reg_write_d $end
    $var wire 2 7 res_src_d [1:0] $end
    $var wire 1 8 mem_write_d $end
    $var wire 1 : jump_d $end
    $var wire 1 ; branch_d $end
    $var wire 4 6 alu_control_d [3:0] $end
    $var wire 3 > funct3_d [2:0] $end
    $var wire 1 = alu_src_b_d $end
    $var wire 1 < alu_src_a_d $end
    $var wire 32 2 rd1_d [31:0] $end
    $var wire 32 3 rd2_d [31:0] $end
    $var wire 32 . pc_d [31:0] $end
    $var wire 5 5 rd_d [4:0] $end
    $var wire 32 4 imm_val_d [31:0] $end
    $var wire 32 / pc_plus4_d [31:0] $end
    $var wire 2 1 tid_d [1:0] $end
    $var wire 32 1! BITS_THREADS [31:0] $end
    $var wire 3 b imm_src_d [2:0] $end
    $scope module cu $end
     $var wire 7 c op [6:0] $end
     $var wire 3 > funct3 [14:12] $end
     $var wire 1 d funct7b5 $end
     $var wire 1 9 reg_write_d $end
     $var wire 2 7 res_src_d [1:0] $end
     $var wire 1 8 mem_write_d $end
     $var wire 1 : jump_d $end
     $var wire 1 ; branch_d $end
     $var wire 4 6 alu_control_d [3:0] $end
     $var wire 1 = alu_src_b_d $end
     $var wire 1 < alu_src_a_d $end
     $var wire 3 b imm_src_d [2:0] $end
     $var wire 11 e controls [10:0] $end
     $var wire 4 6 alu_controls [3:0] $end
    $upscope $end
    $scope module imex $end
     $var wire 25 f instr [31:7] $end
     $var wire 3 b imm_type [2:0] $end
     $var wire 32 4 imm_val [31:0] $end
    $upscope $end
    $scope module rf $end
     $var wire 32 .! NUM_THREADS [31:0] $end
     $var wire 32 -! DATA_WIDTH [31:0] $end
     $var wire 1 +! clk $end
     $var wire 1 [ write_enable $end
     $var wire 2 1 tid_read [1:0] $end
     $var wire 2 ` tid_write [1:0] $end
     $var wire 5 g a1 [4:0] $end
     $var wire 5 h a2 [4:0] $end
     $var wire 5 ^ a3 [4:0] $end
     $var wire 32 a wd3 [31:0] $end
     $var wire 32 2 rd1 [31:0] $end
     $var wire 32 3 rd2 [31:0] $end
     $var wire 32 1! BITS_THREADS [31:0] $end
     $var wire 32 i curr_reg_read[0] [31:0] $end
     $var wire 32 j curr_reg_read[1] [31:0] $end
     $var wire 32 k curr_reg_read[2] [31:0] $end
     $var wire 32 l curr_reg_read[3] [31:0] $end
     $var wire 32 m curr_reg_read[4] [31:0] $end
     $var wire 32 n curr_reg_read[5] [31:0] $end
     $var wire 32 o curr_reg_read[6] [31:0] $end
     $var wire 32 p curr_reg_read[7] [31:0] $end
     $var wire 32 q curr_reg_read[8] [31:0] $end
     $var wire 32 r curr_reg_read[9] [31:0] $end
     $var wire 32 s curr_reg_read[10] [31:0] $end
     $var wire 32 t curr_reg_read[11] [31:0] $end
     $var wire 32 u curr_reg_read[12] [31:0] $end
     $var wire 32 v curr_reg_read[13] [31:0] $end
     $var wire 32 w curr_reg_read[14] [31:0] $end
     $var wire 32 x curr_reg_read[15] [31:0] $end
     $var wire 32 y curr_reg_write[0] [31:0] $end
     $var wire 32 z curr_reg_write[1] [31:0] $end
     $var wire 32 { curr_reg_write[2] [31:0] $end
     $var wire 32 | curr_reg_write[3] [31:0] $end
     $var wire 4 $ write_valid[0] [3:0] $end
     $var wire 4 % write_valid[1] [3:0] $end
     $var wire 4 & write_valid[2] [3:0] $end
     $var wire 4 ' write_valid[3] [3:0] $end
     $var wire 2 1 curr_read_tid [1:0] $end
     $var wire 2 } prev_read_tid [1:0] $end
     $var wire 32 ( i [31:0] $end
    $upscope $end
   $upscope $end
   $scope module em $end
    $var wire 32 -! ADDRESS_WIDTH [31:0] $end
    $var wire 32 -! DATA_WIDTH [31:0] $end
    $var wire 32 .! NUM_THREADS [31:0] $end
    $var wire 1 +! clk $end
    $var wire 1 2! en $end
    $var wire 1 *! clr $end
    $var wire 1 H reg_write_e $end
    $var wire 1 G mem_write_e $end
    $var wire 2 F result_src_e [1:0] $end
    $var wire 3 M funct3_e [14:12] $end
    $var wire 32 O alu_result_e [31:0] $end
    $var wire 32 @ write_data_e [31:0] $end
    $var wire 5 D rd_e [4:0] $end
    $var wire 32 C pc_plus4_e [31:0] $end
    $var wire 2 N tid_e [1:0] $end
    $var wire 1 U reg_write_m $end
    $var wire 1 T mem_write_m $end
    $var wire 2 V result_src_m [1:0] $end
    $var wire 3 W funct3_m [14:12] $end
    $var wire 32 Q alu_result_m [31:0] $end
    $var wire 32 R write_data_m [31:0] $end
    $var wire 5 X rd_m [4:0] $end
    $var wire 32 S pc_plus4_m [31:0] $end
    $var wire 2 Y tid_m [1:0] $end
    $var wire 32 1! BITS_THREADS [31:0] $end
   $upscope $end
   $scope module execute_stage $end
    $var wire 32 -! DATA_WIDTH [31:0] $end
    $var wire 32 -! ADDRESS_WIDTH [31:0] $end
    $var wire 32 .! NUM_THREADS [31:0] $end
    $var wire 1 H reg_write_d $end
    $var wire 2 F res_src_d [1:0] $end
    $var wire 1 G mem_write_d $end
    $var wire 1 I jump_d $end
    $var wire 1 J branch_d $end
    $var wire 4 E alu_control_d [3:0] $end
    $var wire 3 M funct3_d [14:12] $end
    $var wire 1 L alu_src_b_d $end
    $var wire 1 K alu_src_a_d $end
    $var wire 32 ? rd1_d [31:0] $end
    $var wire 32 @ rd2_d [31:0] $end
    $var wire 32 B pc_d [31:0] $end
    $var wire 5 D rd_d [4:0] $end
    $var wire 32 A imm_val_d [31:0] $end
    $var wire 32 C pc_plus4_d [31:0] $end
    $var wire 2 N tid_d [1:0] $end
    $var wire 1 H reg_write_e $end
    $var wire 2 F res_src_e [1:0] $end
    $var wire 1 G mem_write_e $end
    $var wire 3 M funct3_e [14:12] $end
    $var wire 32 O alu_result_e [31:0] $end
    $var wire 32 @ write_data_e [31:0] $end
    $var wire 5 D rd_e [4:0] $end
    $var wire 32 C pc_plus4_e [31:0] $end
    $var wire 32 O pc_target_e [31:0] $end
    $var wire 1 P pc_src_e $end
    $var wire 2 N tid_e [1:0] $end
    $var wire 32 1! BITS_THREADS [31:0] $end
    $var wire 32 ~ a_alu [31:0] $end
    $var wire 32 !! b_alu [31:0] $end
    $var wire 1 "! branch_result $end
    $scope module bu $end
     $var wire 32 -! DATA_WIDTH [31:0] $end
     $var wire 32 ? a [31:0] $end
     $var wire 32 @ b [31:0] $end
     $var wire 3 M funct3 [2:0] $end
     $var wire 1 "! branch_result $end
    $upscope $end
    $scope module main_alu $end
     $var wire 32 -! DATA_WIDTH [31:0] $end
     $var wire 32 ~ a [31:0] $end
     $var wire 32 !! b [31:0] $end
     $var wire 4 E alu_controls [3:0] $end
     $var wire 32 O res [31:0] $end
    $upscope $end
   $upscope $end
   $scope module fd $end
    $var wire 32 -! ADDRESS_WIDTH [31:0] $end
    $var wire 32 -! DATA_WIDTH [31:0] $end
    $var wire 32 .! NUM_THREADS [31:0] $end
    $var wire 1 +! clk $end
    $var wire 1 2! en $end
    $var wire 1 *! clr $end
    $var wire 32 + pc_f [31:0] $end
    $var wire 32 , pc_plus4_f [31:0] $end
    $var wire 32 # instr_f [31:0] $end
    $var wire 2 - tid_f [1:0] $end
    $var wire 32 . pc_d [31:0] $end
    $var wire 32 / pc_plus4_d [31:0] $end
    $var wire 32 0 instr_d [31:0] $end
    $var wire 2 1 tid_d [1:0] $end
    $var wire 32 1! BITS_THREADS [31:0] $end
   $upscope $end
   $scope module fetch_stage $end
    $var wire 32 -! DATA_WIDTH [31:0] $end
    $var wire 32 -! ADDRESS_WIDTH [31:0] $end
    $var wire 32 0! IMEM_SIZE [31:0] $end
    $var wire 32 .! NUM_THREADS [31:0] $end
    $var wire 1 +! clk $end
    $var wire 1 *! rst $end
    $var wire 1 P pc_src_e $end
    $var wire 32 O pc_target_e [31:0] $end
    $var wire 2 N tid_e [1:0] $end
    $var wire 32 + pc_f [31:0] $end
    $var wire 32 , pc_plus4_f [31:0] $end
    $var wire 32 # instr_f [31:0] $end
    $var wire 2 - tid_f [1:0] $end
    $var wire 32 1! BITS_THREADS [31:0] $end
    $var wire 32 + pc [31:0] $end
    $var wire 2 - tid [1:0] $end
    $scope module i_mem $end
     $var wire 32 -! ADDRESS_WIDTH [31:0] $end
     $var wire 32 -! DATA_WIDTH [31:0] $end
     $var wire 32 0! MEM_SIZE [31:0] $end
     $var wire 32 + instr_addr [31:0] $end
     $var wire 32 # instr [31:0] $end
    $upscope $end
    $scope module thread_pc $end
     $var wire 32 .! NUM_THREADS [31:0] $end
     $var wire 32 -! ADDRESS_WIDTH [31:0] $end
     $var wire 1 +! clk $end
     $var wire 1 *! rst $end
     $var wire 2 - tid [1:0] $end
     $var wire 1 P pc_src_e $end
     $var wire 2 N branch_tid_e [1:0] $end
     $var wire 32 O pc_target_e [31:0] $end
     $var wire 32 + pc [31:0] $end
     $var wire 32 , pc_plus4 [31:0] $end
     $var wire 32 1! BITS_THREADS [31:0] $end
     $var wire 32 #! t_pc[0] [31:0] $end
     $var wire 32 $! t_pc[1] [31:0] $end
     $var wire 32 %! t_pc[2] [31:0] $end
     $var wire 32 &! t_pc[3] [31:0] $end
     $var wire 32 '! i [31:0] $end
    $upscope $end
    $scope module ts $end
     $var wire 32 .! NUM_THREADS [31:0] $end
     $var wire 1 +! clk $end
     $var wire 1 *! rst $end
     $var wire 2 - tid [1:0] $end
     $var wire 32 1! BITS_THREADS [31:0] $end
    $upscope $end
   $upscope $end
   $scope module memory_stage $end
    $var wire 32 -! ADDRESS_WIDTH [31:0] $end
    $var wire 32 -! DATA_WIDTH [31:0] $end
    $var wire 32 /! DMEM_SIZE [31:0] $end
    $var wire 32 .! NUM_THREADS [31:0] $end
    $var wire 1 +! clk $end
    $var wire 1 U reg_write_e $end
    $var wire 2 V result_src_e [1:0] $end
    $var wire 1 T mem_write_e $end
    $var wire 3 W funct3_e [14:12] $end
    $var wire 32 Q alu_result_e [31:0] $end
    $var wire 32 R write_data_e [31:0] $end
    $var wire 5 X rd_e [4:0] $end
    $var wire 32 S pc_plus4_e [31:0] $end
    $var wire 2 Y tid_e [1:0] $end
    $var wire 1 U reg_write_m $end
    $var wire 2 V result_src_m [1:0] $end
    $var wire 32 Q alu_result_m [31:0] $end
    $var wire 32 Z read_data_m [31:0] $end
    $var wire 5 X rd_m [4:0] $end
    $var wire 32 S pc_plus4_m [31:0] $end
    $var wire 2 Y tid_m [1:0] $end
    $var wire 32 1! BITS_THREADS [31:0] $end
    $scope module dm $end
     $var wire 32 -! ADDRESS_WIDTH [31:0] $end
     $var wire 32 -! DATA_WIDTH [31:0] $end
     $var wire 32 /! MEM_SIZE [31:0] $end
     $var wire 1 +! clk $end
     $var wire 1 T mem_write_e $end
     $var wire 3 W funct3 [14:12] $end
     $var wire 32 Q data_mem_addr [31:0] $end
     $var wire 32 R write_data_e [31:0] $end
     $var wire 32 Z read_data_m [31:0] $end
     $var wire 32 (! word_addr [31:0] $end
     $var wire 32 )! word [31:0] $end
     $var wire 32 ,! i [31:0] $end
    $upscope $end
   $upscope $end
   $scope module mw $end
    $var wire 32 -! ADDRESS_WIDTH [31:0] $end
    $var wire 32 -! DATA_WIDTH [31:0] $end
    $var wire 32 .! NUM_THREADS [31:0] $end
    $var wire 1 +! clk $end
    $var wire 1 2! en $end
    $var wire 1 *! clr $end
    $var wire 1 U reg_write_m $end
    $var wire 2 V result_src_m [1:0] $end
    $var wire 32 Q alu_result_m [31:0] $end
    $var wire 32 Z read_data_m [31:0] $end
    $var wire 5 X rd_m [4:0] $end
    $var wire 32 S pc_plus4_m [31:0] $end
    $var wire 2 Y tid_m [1:0] $end
    $var wire 1 [ reg_write_w $end
    $var wire 2 \ result_src_w [1:0] $end
    $var wire 32 ) alu_result_w [31:0] $end
    $var wire 32 ] read_data_w [31:0] $end
    $var wire 5 ^ rd_w [4:0] $end
    $var wire 32 _ pc_plus4_w [31:0] $end
    $var wire 2 ` tid_w [1:0] $end
    $var wire 32 1! BITS_THREADS [31:0] $end
   $upscope $end
   $scope module writeback_stage $end
    $var wire 32 -! ADDRESS_WIDTH [31:0] $end
    $var wire 32 -! DATA_WIDTH [31:0] $end
    $var wire 32 .! NUM_THREADS [31:0] $end
    $var wire 1 [ reg_write_m $end
    $var wire 2 \ result_src_m [1:0] $end
    $var wire 32 ) alu_result_m [31:0] $end
    $var wire 32 ] read_data_m [31:0] $end
    $var wire 5 ^ rd_m [4:0] $end
    $var wire 32 _ pc_plus4_m [31:0] $end
    $var wire 2 ` tid_m [1:0] $end
    $var wire 32 a result_w [31:0] $end
    $var wire 1 [ reg_write_w $end
    $var wire 5 ^ rd_w [4:0] $end
    $var wire 2 ` tid_w [1:0] $end
    $var wire 32 1! BITS_THREADS [31:0] $end
    $scope module result_mux $end
     $var wire 32 -! DATA_WIDTH [31:0] $end
     $var wire 32 ) in1 [31:0] $end
     $var wire 32 ] in2 [31:0] $end
     $var wire 32 _ in3 [31:0] $end
     $var wire 2 \ sel [1:0] $end
     $var wire 32 a out [31:0] $end
    $upscope $end
   $upscope $end
  $upscope $end
 $upscope $end
$enddefinitions $end


#0
b00000000000000000001111011101111 #
b0000 $
b0000 %
b0000 &
b0000 '
b00000000000000000000000000111111 (
b00000000000000000000000000000000 )
b11111111111111111111111111111100 *
b00000000000000000000000000000000 +
b00000000000000000000000000000100 ,
b00 -
b00000000000000000000000000000000 .
b00000000000000000000000000000000 /
b00000000000000000000000000000000 0
b00 1
b00000000000000000000000000000000 2
b00000000000000000000000000000000 3
b00000000000000000000000000000000 4
b00000 5
b0000 6
b00 7
08
09
0:
0;
0<
0=
b000 >
b00000000000000000000000000000000 ?
b00000000000000000000000000000000 @
b00000000000000000000000000000000 A
b00000000000000000000000000000000 B
b00000000000000000000000000000000 C
b00000 D
b0000 E
b00 F
0G
0H
0I
0J
0K
0L
b000 M
b00 N
b00000000000000000000000000000000 O
0P
b00000000000000000000000000000000 Q
b00000000000000000000000000000000 R
b00000000000000000000000000000000 S
0T
0U
b00 V
b000 W
b00000 X
b00 Y
b00000000000000000000000000000000 Z
0[
b00 \
b00000000000000000000000000000000 ]
b00000 ^
b00000000000000000000000000000000 _
b00 `
b00000000000000000000000000000000 a
b000 b
b0000000 c
0d
b00000000000 e
b0000000000000000000000000 f
b00000 g
b00000 h
b00000000000000000000000000000000 i
b00000000000000000000000000000000 j
b00000000000000000000000000000000 k
b00000000000000000000000000000000 l
b00000000000000000000000000000000 m
b00000000000000000000000000000000 n
b00000000000000000000000000000000 o
b00000000000000000000000000000000 p
b00000000000000000000000000000000 q
b00000000000000000000000000000000 r
b00000000000000000000000000000000 s
b00000000000000000000000000000000 t
b00000000000000000000000000000000 u
b00000000000000000000000000000000 v
b00000000000000000000000000000000 w
b00000000000000000000000000000000 x
b00000000000000000000000000000000 y
b00000000000000000000000000000000 z
b00000000000000000000000000000000 {
b00000000000000000000000000000000 |
b11 }
b00000000000000000000000000000000 ~
b00000000000000000000000000000000 !!
1"!
b00000000000000000000000000000000 #!
b00000000000000000000000000000000 $!
b00000000000000000000000000000000 %!
b00000000000000000000000000000000 &!
b00000000000000000000000000000000 '!
b00000000000000000000000000000000 (!
b00000000000000000000000000000000 )!
1*!
0+!
b00000000000000000000000001000000 ,!
b00000000000000000000000000100000 -!
b00000000000000000000000000000100 .!
b00000000000000000000000001000000 /!
b00000000000000000000010000000000 0!
b00000000000000000000000000000010 1!
02!
#10
0*!
#75
b00000000000000000000000000010000 (
b01 -
b00000000000000000000000000000100 /
b00000000000000000001111011101111 0
b00000000000000000001000000000000 4
b11101 5
b10 7
19
1:
1<
1=
b001 >
b011 b
b1101111 c
b11001011011 e
b0000000000000000000111101 f
b00000000000000000000000000000100 #!
1+!
#150
0+!
#225
b10 -
b01 1
b00000000000000000001000000000000 A
b00000000000000000000000000000100 C
b11101 D
b10 F
1H
1I
1K
1L
b001 M
b00000000000000000001000000000000 O
1P
b00 }
b00000000000000000001000000000000 !!
0"!
b00000000000000000000000000000100 $!
1+!
#300
0+!
#375
b11 -
b10 1
b01 N
b00000000000000000001000000000000 Q
b00000000000000000000000000000100 S
1U
b10 V
b001 W
b11101 X
b01 }
b00000000000000000001000000000000 #!
b00000000000000000000000000000100 %!
1+!
#450
0+!
#525
b00000000000000000001000000000000 )
b00000000000000000000000000000000 *
b00000000000000000001000000000000 +
b00000000000000000001000000000100 ,
b00 -
b11 1
b10 N
b01 Y
1[
b10 \
b11101 ^
b00000000000000000000000000000100 _
b00000000000000000000000000000100 a
b10 }
b00000000000000000001000000000000 $!
b00000000000000000000000000000100 &!
1+!
#600
0+!
#675
b1101 $
b01 -
b00000000000000000001000000000000 .
b00000000000000000001000000000100 /
b00 1
b11 N
b10 Y
b01 `
b00000000000000000000000000000100 y
b11 }
b00000000000000000001000000000100 #!
b00000000000000000001000000000000 %!
1+!
#750
0+!
#825
b1101 %
b10 -
b01 1
b00000000000000000001000000000000 B
b00000000000000000001000000000100 C
b00 N
b00000000000000000010000000000000 O
b11 Y
b10 `
b00000000000000000000000000000100 z
b00 }
b00000000000000000001000000000000 ~
b00000000000000000001000000000100 $!
b00000000000000000001000000000000 &!
1+!
#900
0+!
#975
b1101 &
b11 -
b10 1
b01 N
b00000000000000000010000000000000 Q
b00000000000000000001000000000100 S
b00 Y
b11 `
b00000000000000000000000000000100 {
b01 }
b00000000000000000010000000000000 #!
b00000000000000000001000000000100 %!
1+!
#1050
0+!
#1125
b1101 '
b00000000000000000010000000000000 )
b00000000000000000001000000000000 *
b00000000000000000010000000000000 +
b00000000000000000010000000000100 ,
b00 -
b11 1
b10 N
b01 Y
b00000000000000000001000000000100 _
b00 `
b00000000000000000001000000000100 a
b00000000000000000000000000000100 |
b10 }
b00000000000000000010000000000000 $!
b00000000000000000001000000000100 &!
1+!
#1200
0+!
#1275
b01 -
b00000000000000000010000000000000 .
b00000000000000000010000000000100 /
b00 1
b11 N
b10 Y
b01 `
b00000000000000000001000000000100 y
b11 }
b00000000000000000010000000000100 #!
b00000000000000000010000000000000 %!
1+!
#1350
0+!
#1425
b10 -
b01 1
b00000000000000000010000000000000 B
b00000000000000000010000000000100 C
b00 N
b00000000000000000011000000000000 O
b11 Y
b10 `
b00000000000000000000000000000100 v
b00000000000000000001000000000100 z
b00 }
b00000000000000000010000000000000 ~
b00000000000000000010000000000100 $!
b00000000000000000010000000000000 &!
1+!
#1500
0+!
#1575
b11 -
b10 1
b01 N
b00000000000000000011000000000000 Q
b00000000000000000010000000000100 S
b00 Y
b11 `
b00000000000000000001000000000100 {
b01 }
b00000000000000000011000000000000 #!
b00000000000000000010000000000100 %!
1+!
#1650
0+!
#1725
b00000000000000000011000000000000 )
b00000000000000000010000000000000 *
b00000000000000000011000000000000 +
b00000000000000000011000000000100 ,
b00 -
b11 1
b10 N
b01 Y
b00000000000000000010000000000100 _
b00 `
b00000000000000000010000000000100 a
b00000000000000000001000000000100 |
b10 }
b00000000000000000011000000000000 $!
b00000000000000000010000000000100 &!
1+!
#1800
0+!
#1875
b01 -
b00000000000000000011000000000000 .
b00000000000000000011000000000100 /
b00 1
b11 N
b10 Y
b01 `
b00000000000000000010000000000100 y
b11 }
b00000000000000000011000000000100 #!
b00000000000000000011000000000000 %!
1+!
#1950
0+!
#2025
b10 -
b01 1
b00000000000000000011000000000000 B
b00000000000000000011000000000100 C
b00 N
b00000000000000000100000000000000 O
b11 Y
b10 `
b00000000000000000001000000000100 v
b00000000000000000010000000000100 z
b00 }
b00000000000000000011000000000000 ~
b00000000000000000011000000000100 $!
b00000000000000000011000000000000 &!
1+!
#2100
0+!
#2175
b11 -
b10 1
b01 N
b00000000000000000100000000000000 Q
b00000000000000000011000000000100 S
b00 Y
b11 `
b00000000000000000010000000000100 {
b01 }
b00000000000000000100000000000000 #!
b00000000000000000011000000000100 %!
1+!
#2250
0+!
#2325
b00000000000000000100000000000000 )
b00000000000000000011000000000000 *
b00000000000000000100000000000000 +
b00000000000000000100000000000100 ,
b00 -
b11 1
b10 N
b01 Y
b00000000000000000011000000000100 _
b00 `
b00000000000000000011000000000100 a
b00000000000000000010000000000100 |
b10 }
b00000000000000000100000000000000 $!
b00000000000000000011000000000100 &!
1+!
#2400
0+!
#2475
b01 -
b00000000000000000100000000000000 .
b00000000000000000100000000000100 /
b00 1
b11 N
b10 Y
b01 `
b00000000000000000011000000000100 y
b11 }
b00000000000000000100000000000100 #!
b00000000000000000100000000000000 %!
1+!
#2550
0+!
#2625
b10 -
b01 1
b00000000000000000100000000000000 B
b00000000000000000100000000000100 C
b00 N
b00000000000000000101000000000000 O
b11 Y
b10 `
b00000000000000000010000000000100 v
b00000000000000000011000000000100 z
b00 }
b00000000000000000100000000000000 ~
b00000000000000000100000000000100 $!
b00000000000000000100000000000000 &!
1+!
#2700
0+!
#2775
b11 -
b10 1
b01 N
b00000000000000000101000000000000 Q
b00000000000000000100000000000100 S
b00 Y
b11 `
b00000000000000000011000000000100 {
b01 }
b00000000000000000101000000000000 #!
b00000000000000000100000000000100 %!
1+!
#2850
0+!
#2925
b00000000000000000101000000000000 )
b00000000000000000100000000000000 *
b00000000000000000101000000000000 +
b00000000000000000101000000000100 ,
b00 -
b11 1
b10 N
b01 Y
b00000000000000000100000000000100 _
b00 `
b00000000000000000100000000000100 a
b00000000000000000011000000000100 |
b10 }
b00000000000000000101000000000000 $!
b00000000000000000100000000000100 &!
1+!
#3000
0+!
#3075
b01 -
b00000000000000000101000000000000 .
b00000000000000000101000000000100 /
b00 1
b11 N
b10 Y
b01 `
b00000000000000000100000000000100 y
b11 }
b00000000000000000101000000000100 #!
b00000000000000000101000000000000 %!
1+!
#3150
0+!
#3225
b10 -
b01 1
b00000000000000000101000000000000 B
b00000000000000000101000000000100 C
b00 N
b00000000000000000110000000000000 O
b11 Y
b10 `
b00000000000000000011000000000100 v
b00000000000000000100000000000100 z
b00 }
b00000000000000000101000000000000 ~
b00000000000000000101000000000100 $!
b00000000000000000101000000000000 &!
1+!
#3300
0+!
#3375
b11 -
b10 1
b01 N
b00000000000000000110000000000000 Q
b00000000000000000101000000000100 S
b00 Y
b11 `
b00000000000000000100000000000100 {
b01 }
b00000000000000000110000000000000 #!
b00000000000000000101000000000100 %!
1+!
#3450
0+!
#3525
b00000000000000000110000000000000 )
b00000000000000000101000000000000 *
b00000000000000000110000000000000 +
b00000000000000000110000000000100 ,
b00 -
b11 1
b10 N
b01 Y
b00000000000000000101000000000100 _
b00 `
b00000000000000000101000000000100 a
b00000000000000000100000000000100 |
b10 }
b00000000000000000110000000000000 $!
b00000000000000000101000000000100 &!
1+!
#3600
0+!
#3675
b01 -
b00000000000000000110000000000000 .
b00000000000000000110000000000100 /
b00 1
b11 N
b10 Y
b01 `
b00000000000000000101000000000100 y
b11 }
b00000000000000000110000000000100 #!
b00000000000000000110000000000000 %!
1+!
#3750
0+!
